﻿"Date","Price","Open","High","Low","Vol.","Change %"
"May 20, 2020","1,709.00","1,708.00","1,711.00","1,705.00","3.56K","0.12%"
"May 21, 2020","1,711.00","1,709.00","1,714.00","1,708.00","4.28K","0.12%"
"May 22, 2020","1,719.00","1,710.00","1,719.00","1,705.00","5.40K","0.47%"
"May 25, 2020","1,721.00","1,720.00","1,725.00","1,712.00","2.63K","0.12%"
"May 26, 2020","1,731.00","1,725.00","1,731.00","1,720.00","4.13K","0.58%"
"May 27, 2020","1,731.00","1,731.00","1,732.00","1,727.00","5.68K","0.00%"
"May 28, 2020","1,735.00","1,731.00","1,735.00","1,729.00","5.82K","0.23%"
"May 29, 2020","1,740.00","1,734.00","1,741.00","1,732.00","7.01K","0.29%"
"Jun 01, 2020","1,744.00","1,740.00","1,745.00","1,740.00","15.06K","0.23%"
"Jun 02, 2020","1,742.00","1,745.00","1,746.00","1,733.00","8.18K","-0.11%"
"Jun 03, 2020","1,741.00","1,740.00","1,744.00","1,730.00","7.70K","-0.06%"
"Jun 04, 2020","1,734.00","1,738.00","1,741.00","1,731.00","3.46K","-0.40%"
"Jun 05, 2020","1,735.00","1,734.00","1,743.00","1,732.00","4.74K","0.06%"
"Jun 08, 2020","1,736.00","1,736.00","1,741.00","1,733.00","4.27K","0.06%"
"Jun 09, 2020","1,740.00","1,739.00","1,741.00","1,727.00","4.85K","0.23%"
"Jun 10, 2020","1,743.00","1,740.00","1,743.00","1,737.00","6.46K","0.17%"
"Jun 11, 2020","1,743.00","1,743.00","1,747.00","1,739.00","26.13K","0.00%"
"Jun 15, 2020","1,729.00","1,745.00","1,746.00","1,680.00","41.45K","-0.80%"
"Jun 16, 2020","1,729.00","1,729.00","1,736.00","1,724.00","9.05K","0.00%"
"Jun 17, 2020","1,732.00","1,733.00","1,735.00","1,728.00","3.58K","0.17%"
"Jun 18, 2020","1,734.00","1,735.00","1,735.00","1,727.00","4.15K","0.12%"
"Jun 19, 2020","1,735.00","1,730.00","1,735.00","1,730.00","2.89K","0.06%"
"Jun 22, 2020","1,735.00","1,735.00","1,740.00","1,731.00","4.09K","0.00%"
"Jun 23, 2020","1,735.00","1,736.00","1,740.00","1,732.00","3.25K","0.00%"
"Jun 25, 2020","1,737.00","1,736.00","1,741.00","1,733.00","3.29K","0.12%"
"Jun 26, 2020","1,736.00","1,735.00","1,739.00","1,732.00","3.69K","-0.06%"
"Jun 29, 2020","1,736.00","1,739.00","1,739.00","1,733.00","3.10K","0.00%"
"Jun 30, 2020","1,739.00","1,737.00","1,739.00","1,735.00","3.57K","0.17%"
"Jul 02, 2020","1,738.00","1,735.00","1,739.00","1,734.00","7.07K","-0.06%"
"Jul 03, 2020","1,738.00","1,739.00","1,740.00","1,733.00","5.08K","0.00%"
"Jul 06, 2020","1,735.00","1,738.00","1,738.00","1,729.00","5.50K","-0.17%"
"Jul 07, 2020","1,736.00","1,731.00","1,738.00","1,731.00","3.23K","0.06%"
"Jul 08, 2020","1,735.00","1,732.00","1,735.00","1,731.00","12.26K","-0.06%"
"Jul 09, 2020","1,734.00","1,736.00","1,737.00","1,730.00","5.42K","-0.06%"
"Jul 10, 2020","1,735.00","1,726.00","1,737.00","1,726.00","2.93K","0.06%"
"Jul 13, 2020","1,735.00","1,734.00","1,736.00","1,730.00","3.43K","0.00%"
"Jul 14, 2020","1,734.00","1,730.00","1,735.00","1,730.00","2.75K","-0.06%"
"Jul 15, 2020","1,735.00","1,731.00","1,737.00","1,725.00","3.84K","0.06%"
"Jul 16, 2020","1,735.00","1,736.00","1,739.00","1,734.00","3.32K","0.00%"
"Jul 17, 2020","1,735.00","1,735.00","1,738.00","1,733.00","2.99K","0.00%"
"Jul 20, 2020","1,737.00","1,739.00","1,739.00","1,735.00","2.83K","0.12%"
"Jul 21, 2020","1,738.00","1,735.00","1,740.00","1,734.00","2.63K","0.06%"
"Jul 22, 2020","1,742.00","1,740.00","1,748.00","1,735.00","5.01K","0.23%"
"Jul 23, 2020","1,742.00","1,746.00","1,748.00","1,739.00","5.98K","0.00%"
"Jul 24, 2020","1,745.00","1,742.00","1,749.00","1,740.00","2.93K","0.17%"
"Jul 27, 2020","1,749.00","1,746.00","1,749.00","1,744.00","3.67K","0.23%"
"Jul 28, 2020","1,744.00","1,749.00","1,750.00","1,741.00","5.62K","-0.29%"
"Jul 29, 2020","1,752.00","1,745.00","1,752.00","1,744.00","9.90K","0.46%"
"Jul 30, 2020","1,747.00","1,753.00","1,753.00","1,746.00","3.51K","-0.29%"
"Jul 31, 2020","1,753.00","1,753.00","1,756.00","1,746.00","2.37K","0.34%"
"Aug 03, 2020","1,748.00","1,754.00","1,755.00","1,746.00","7.77K","-0.29%"
"Aug 04, 2020","1,750.00","1,748.00","1,755.00","1,744.00","22.74K","0.11%"
"Aug 05, 2020","1,749.00","1,750.00","1,752.00","1,745.00","10.86K","-0.06%"
"Aug 06, 2020","1,750.00","1,747.00","1,751.00","1,747.00","4.11K","0.06%"
"Aug 07, 2020","1,751.00","1,751.00","1,752.00","1,748.00","3.65K","0.06%"
"Aug 10, 2020","1,754.00","1,752.00","1,755.00","1,748.00","3.66K","0.17%"
"Aug 11, 2020","1,759.00","1,755.00","1,760.00","1,751.00","4.00K","0.29%"
"Aug 12, 2020","1,762.00","1,759.00","1,763.00","1,758.00","2.04K","0.17%"
"Aug 13, 2020","1,763.00","1,764.00","1,764.00","1,758.00","2.45K","0.06%"
"Aug 14, 2020","1,767.00","1,764.00","1,767.00","1,761.00","2.22K","0.23%"
"Aug 17, 2020","1,764.00","1,767.00","1,768.00","1,762.00","3.89K","-0.17%"
"Aug 18, 2020","1,765.00","1,767.00","1,767.00","1,761.00","4.06K","0.06%"
"Aug 19, 2020","1,767.00","1,765.00","1,769.00","1,765.00","3.16K","0.11%"
"Aug 20, 2020","1,767.00","1,767.00","1,767.00","1,764.00","2.82K","0.00%"
"Aug 21, 2020","1,766.00","1,767.00","1,768.00","1,762.00","3.34K","-0.06%"
"Aug 24, 2020","1,763.00","1,764.00","1,768.00","1,762.00","6.66K","-0.17%"
"Aug 25, 2020","1,766.00","1,766.00","1,769.00","1,761.00","6.98K","0.17%"
"Aug 26, 2020","1,768.00","1,764.00","1,771.00","1,764.00","5.51K","0.11%"
"Aug 27, 2020","1,772.00","1,768.00","1,796.00","1,765.00","16.25K","0.23%"
"Aug 28, 2020","1,774.00","1,773.00","1,786.00","1,770.00","2.87K","0.11%"
"Aug 31, 2020","1,773.00","1,784.00","1,795.00","1,768.00","5.21K","-0.06%"
"Sep 01, 2020","1,775.00","1,773.00","1,781.00","1,773.00","2.85K","0.11%"
"Sep 02, 2020","1,772.00","1,775.00","1,783.00","1,772.00","3.70K","-0.17%"
"Sep 03, 2020","1,771.00","1,771.00","1,773.00","1,770.00","2.99K","-0.06%"
"Sep 04, 2020","1,763.00","1,772.00","1,773.00","1,752.00","16.94K","-0.45%"
"Sep 07, 2020","1,766.00","1,755.00","1,766.00","1,755.00","5.55K","0.17%"
"Sep 08, 2020","1,766.00","1,765.00","1,769.00","1,762.00","3.62K","0.00%"
"Sep 09, 2020","1,768.00","1,769.00","1,769.00","1,764.00","2.86K","0.11%"
"Sep 10, 2020","1,766.00","1,767.00","1,769.00","1,761.00","2.90K","-0.11%"
"Sep 11, 2020","1,770.00","1,769.00","1,770.00","1,765.00","1.96K","0.23%"
"Sep 14, 2020","1,771.00","1,770.00","1,772.00","1,768.00","2.61K","0.06%"
"Sep 15, 2020","1,770.00","1,771.00","1,771.00","1,768.00","3.28K","-0.06%"
"Sep 16, 2020","1,770.00","1,771.00","1,772.00","1,769.00","2.87K","0.00%"
"Sep 17, 2020","1,771.00","1,772.00","1,774.00","1,768.00","2.62K","0.06%"
"Sep 18, 2020","1,772.00","1,772.00","1,772.00","1,767.00","4.72K","0.06%"
"Sep 21, 2020","1,770.00","1,772.00","1,774.00","1,769.00","4.51K","-0.11%"
"Sep 22, 2020","1,769.00","1,770.00","1,770.00","1,768.00","5.04K","-0.06%"
"Sep 23, 2020","1,768.00","1,769.00","1,770.00","1,766.00","3.06K","-0.06%"
"Sep 24, 2020","1,769.00","1,768.00","1,770.00","1,759.00","12.51K","0.06%"
"Sep 25, 2020","1,767.00","1,769.00","1,773.00","1,765.00","11.46K","-0.11%"
"Sep 28, 2020","1,766.00","1,770.00","1,770.00","1,763.00","4.45K","-0.06%"
"Sep 29, 2020","1,770.00","1,766.00","1,770.00","1,766.00","3.44K","0.23%"
"Sep 30, 2020","1,770.00","1,770.00","1,771.00","1,768.00","3.46K","0.00%"
"Oct 01, 2020","1,770.00","1,771.00","1,773.00","1,768.00","2.57K","0.00%"
"Oct 02, 2020","1,774.00","1,770.00","1,774.00","1,769.00","3.40K","0.23%"
"Oct 05, 2020","1,776.00","1,774.00","1,777.00","1,767.00","4.89K","0.11%"
"Oct 06, 2020","1,778.00","1,776.00","1,779.00","1,774.00","5.27K","0.11%"
"Oct 07, 2020","1,775.00","1,778.00","1,780.00","1,769.00","6.92K","-0.17%"
"Oct 08, 2020","1,776.00","1,775.00","1,778.00","1,773.00","2.36K","0.06%"
"Oct 09, 2020","1,775.00","1,776.00","1,779.00","1,775.00","3.39K","-0.06%"
"Oct 12, 2020","1,779.00","1,776.00","1,779.00","1,775.00","3.41K","0.23%"
"Oct 13, 2020","1,779.00","1,779.00","1,780.00","1,776.00","4.30K","0.00%"
"Oct 14, 2020","1,782.00","1,777.00","1,782.00","1,776.00","4.40K","0.17%"
"Oct 15, 2020","1,779.00","1,781.00","1,781.00","1,777.00","2.43K","-0.17%"
"Oct 16, 2020","1,782.00","1,780.00","1,784.00","1,777.00","9.21K","0.17%"
"Oct 19, 2020","1,784.00","1,784.00","1,784.00","1,779.00","3.36K","0.11%"
"Oct 20, 2020","1,783.00","1,784.00","1,785.00","1,780.00","4.91K","-0.06%"
"Oct 21, 2020","1,783.00","1,782.00","1,783.00","1,780.00","2.90K","0.00%"
"Oct 22, 2020","1,780.00","1,784.00","1,784.00","1,780.00","2.73K","-0.17%"
"Oct 23, 2020","1,784.00","1,783.00","1,784.00","1,780.00","2.78K","0.22%"
"Oct 26, 2020","1,780.00","1,785.00","1,787.00","1,778.00","6.68K","-0.22%"
"Oct 27, 2020","1,778.00","1,779.00","1,782.00","1,773.00","7.71K","-0.11%"
"Oct 28, 2020","1,779.00","1,773.00","1,780.00","1,773.00","3.23K","0.06%"
"Oct 29, 2020","1,772.00","1,774.00","1,778.00","1,770.00","4.10K","-0.39%"
"Oct 30, 2020","1,781.00","1,775.00","1,781.00","1,772.00","2.78K","0.51%"
"Nov 02, 2020","1,779.00","1,781.00","1,782.00","1,777.00","4.16K","-0.11%"
"Nov 03, 2020","1,784.00","1,779.00","1,784.00","1,775.00","3.90K","0.28%"
"Nov 05, 2020","1,795.00","1,781.00","1,798.00","1,781.00","8.53K","0.62%"
"Nov 06, 2020","1,791.00","1,793.00","1,794.00","1,784.00","10.49K","-0.22%"
"Nov 09, 2020","1,792.00","1,791.00","1,795.00","1,786.00","5.93K","0.06%"
"Nov 10, 2020","1,790.00","1,790.00","1,794.00","1,787.00","20.09K","-0.11%"
"Nov 11, 2020","1,790.00","1,791.00","1,826.00","1,783.00","13.46K","0.00%"
"Nov 12, 2020","1,793.00","1,792.00","1,793.00","1,782.00","4.38K","0.17%"
"Nov 13, 2020","1,796.00","1,794.00","1,824.00","1,790.00","2.80K","0.17%"
"Nov 16, 2020","1,796.00","1,795.00","1,800.00","1,791.00","8.22K","0.00%"
"Nov 17, 2020","1,798.00","1,797.00","1,801.00","1,791.00","4.87K","0.11%"
"Nov 18, 2020","1,798.00","1,800.00","1,801.00","1,793.00","6.61K","0.00%"
"Nov 19, 2020","1,799.00","1,798.00","1,799.00","1,794.00","6.50K","0.06%"
"Nov 20, 2020","1,799.00","1,800.00","1,800.00","1,795.00","4.52K","0.00%"