﻿"Date","Price","Open","High","Low","Vol.","Change %"
"May 20, 2020","729.20","740.70","743.50","725.80","33.88K","-1.55%"
"May 21, 2020","724.00","729.50","734.00","721.00","32.56K","-0.71%"
"May 22, 2020","732.10","730.80","736.10","724.00","43.53K","1.12%"
"May 25, 2020","731.50","732.10","736.50","729.00","17.12K","-0.08%"
"May 26, 2020","723.50","736.60","736.60","721.30","35.48K","-1.09%"
"May 27, 2020","728.00","723.80","729.30","720.10","27.28K","0.62%"
"May 28, 2020","720.90","724.10","727.90","719.80","33.11K","-0.98%"
"May 29, 2020","721.40","722.00","723.90","719.00","26.76K","0.07%"
"Jun 01, 2020","709.30","715.90","715.90","709.30","38.34K","-1.68%"
"Jun 02, 2020","704.30","708.00","717.00","700.50","64.28K","-0.70%"
"Jun 03, 2020","699.20","704.00","706.00","696.10","37.42K","-0.72%"
"Jun 04, 2020","708.50","704.20","712.00","703.10","38.47K","1.33%"
"Jun 05, 2020","698.80","695.10","707.90","695.10","37.50K","-1.37%"
"Jun 08, 2020","698.20","703.80","703.80","694.30","38.03K","-0.09%"
"Jun 09, 2020","700.00","698.90","706.40","698.00","42.55K","0.26%"
"Jun 10, 2020","701.30","700.00","709.00","698.40","27.43K","0.19%"
"Jun 11, 2020","712.00","705.10","716.50","702.10","39.06K","1.53%"
"Jun 15, 2020","715.70","716.50","730.00","714.80","76.01K","0.52%"
"Jun 16, 2020","712.50","717.40","717.40","705.10","39.32K","-0.45%"
"Jun 17, 2020","712.00","713.60","715.70","708.40","43.77K","-0.07%"
"Jun 18, 2020","711.30","718.60","718.60","706.30","21.47K","-0.10%"
"Jun 19, 2020","710.00","715.70","715.70","706.40","22.49K","-0.18%"
"Jun 22, 2020","707.70","710.70","713.70","706.00","37.14K","-0.32%"
"Jun 23, 2020","700.90","711.40","711.40","699.90","66.69K","-0.96%"
"Jun 25, 2020","706.70","707.20","711.00","706.00","46.64K","0.83%"
"Jun 26, 2020","712.50","705.20","714.70","704.70","38.13K","0.82%"
"Jun 29, 2020","717.80","714.80","719.10","708.10","56.56K","0.74%"
"Jun 30, 2020","727.20","719.00","739.70","712.10","74.17K","1.31%"
"Jul 02, 2020","719.40","726.50","728.40","716.70","76.66K","-1.07%"
"Jul 03, 2020","729.90","722.40","731.40","718.60","57.66K","1.46%"
"Jul 06, 2020","731.10","723.10","735.90","721.00","73.60K","0.16%"
"Jul 07, 2020","728.20","737.80","738.00","727.00","56.80K","-0.40%"
"Jul 08, 2020","727.40","727.20","736.50","725.00","71.65K","-0.11%"
"Jul 09, 2020","725.20","727.00","733.00","719.70","61.01K","-0.30%"
"Jul 10, 2020","723.20","733.20","733.20","721.50","23.12K","-0.28%"
"Jul 13, 2020","720.50","720.00","729.90","719.90","52.09K","-0.37%"
"Jul 14, 2020","724.60","721.40","728.10","721.40","40.43K","0.57%"
"Jul 15, 2020","724.90","729.00","729.00","721.50","28.90K","0.04%"
"Jul 16, 2020","727.80","725.00","728.90","725.00","16.55K","0.40%"
"Jul 17, 2020","733.50","728.20","734.90","727.50","38.59K","0.78%"
"Jul 20, 2020","729.30","733.50","739.50","728.20","64.71K","-0.57%"
"Jul 21, 2020","721.00","728.00","729.90","720.80","74.65K","-1.14%"
"Jul 22, 2020","726.60","725.80","727.00","720.50","29.37K","0.78%"
"Jul 23, 2020","727.50","728.10","731.00","720.90","65.99K","0.12%"
"Jul 24, 2020","732.70","731.80","734.80","728.00","47.41K","0.71%"
"Jul 27, 2020","732.60","732.00","734.50","729.20","33.19K","-0.01%"
"Jul 28, 2020","740.40","732.20","742.00","728.30","96.05K","1.06%"
"Jul 29, 2020","740.20","740.00","743.90","736.00","55.55K","-0.03%"
"Jul 30, 2020","752.10","745.00","753.00","740.50","91.14K","1.61%"
"Jul 31, 2020","758.60","751.00","758.80","733.00","89.50K","0.86%"
"Aug 03, 2020","748.00","759.80","762.00","747.50","125.95K","-1.40%"
"Aug 04, 2020","749.60","750.00","754.70","745.10","72.40K","0.21%"
"Aug 05, 2020","741.30","751.00","751.00","740.00","78.37K","-1.11%"
"Aug 06, 2020","748.10","744.00","749.90","740.60","60.21K","0.92%"
"Aug 07, 2020","750.50","750.00","753.20","745.30","51.80K","0.32%"
"Aug 10, 2020","749.70","757.00","757.00","747.30","65.27K","-0.11%"
"Aug 11, 2020","743.50","750.00","751.90","740.50","84.71K","-0.83%"
"Aug 12, 2020","751.50","740.20","753.40","740.20","141.41K","1.08%"
"Aug 13, 2020","746.90","748.10","755.00","745.60","18.45K","-0.61%"
"Aug 14, 2020","743.70","752.00","752.00","743.60","50.08K","-0.43%"
"Aug 17, 2020","750.70","743.80","753.20","742.70","57.11K","0.94%"
"Aug 18, 2020","747.50","753.10","753.30","744.60","45.40K","-0.43%"
"Aug 19, 2020","746.10","748.90","751.00","745.10","44.38K","-0.19%"
"Aug 20, 2020","756.00","746.10","757.40","746.10","76.82K","1.33%"
"Aug 21, 2020","763.30","757.80","765.60","752.60","100.70K","0.97%"
"Aug 24, 2020","760.00","760.00","761.90","755.10","50.58K","-0.43%"
"Aug 25, 2020","767.30","764.50","768.90","757.10","98.76K","0.96%"
"Aug 26, 2020","769.00","769.00","774.30","767.50","77.80K","0.22%"
"Aug 27, 2020","764.60","769.40","774.30","761.60","44.09K","-0.57%"
"Aug 28, 2020","757.80","758.30","775.40","757.70","56.69K","-0.89%"
"Aug 31, 2020","758.10","762.00","762.00","751.60","31.57K","0.04%"
"Sep 01, 2020","750.40","757.40","757.50","744.10","45.80K","-1.02%"
"Sep 02, 2020","769.70","753.90","771.90","750.10","88.52K","2.57%"
"Sep 03, 2020","763.10","770.00","772.80","761.40","81.04K","-0.86%"
"Sep 04, 2020","768.50","768.80","770.90","763.50","59.15K","0.71%"
"Sep 07, 2020","771.70","770.60","777.00","765.70","48.21K","0.42%"
"Sep 08, 2020","780.10","773.80","780.10","771.20","94.77K","1.09%"
"Sep 09, 2020","768.90","784.80","784.80","768.00","51.01K","-1.44%"
"Sep 10, 2020","766.00","768.10","771.50","761.80","60.63K","-0.38%"
"Sep 11, 2020","765.50","768.80","768.80","763.10","16.78K","-0.07%"
"Sep 14, 2020","767.00","762.20","770.80","761.30","50.13K","0.20%"
"Sep 15, 2020","764.80","766.70","771.00","763.00","35.89K","-0.29%"
"Sep 16, 2020","764.40","767.00","767.00","762.30","20.51K","-0.05%"
"Sep 17, 2020","768.40","769.90","775.00","764.70","32.70K","0.52%"
"Sep 18, 2020","772.40","765.20","772.40","765.10","33.62K","0.52%"
"Sep 21, 2020","780.00","772.00","781.40","769.30","70.28K","0.98%"
"Sep 22, 2020","777.70","780.20","782.00","773.00","58.04K","-0.29%"
"Sep 23, 2020","783.50","778.90","786.60","777.10","68.71K","0.75%"
"Sep 24, 2020","786.20","785.10","790.50","784.40","111.16K","0.34%"
"Sep 25, 2020","797.50","785.90","799.50","781.00","156.77K","1.44%"
"Sep 28, 2020","805.00","793.20","806.50","792.60","59.76K","0.94%"
"Sep 29, 2020","807.60","805.00","815.00","799.10","101.49K","0.32%"
"Sep 30, 2020","790.50","806.80","808.10","790.10","55.58K","-2.12%"
"Oct 01, 2020","793.80","790.00","799.00","782.00","55.05K","0.42%"
"Oct 02, 2020","800.90","796.00","802.80","793.60","55.03K","0.89%"
"Oct 05, 2020","798.70","800.70","803.70","793.00","53.69K","-0.27%"
"Oct 06, 2020","795.00","801.20","801.50","790.10","29.54K","-0.46%"
"Oct 07, 2020","797.20","797.00","800.00","794.50","33.23K","0.28%"
"Oct 08, 2020","790.00","793.00","799.80","788.00","26.84K","-0.90%"
"Oct 09, 2020","787.80","790.10","792.90","781.30","39.49K","-0.28%"
"Oct 12, 2020","785.80","789.00","790.00","783.20","29.41K","-0.25%"
"Oct 13, 2020","785.10","785.80","790.00","783.50","43.13K","-0.09%"
"Oct 14, 2020","789.50","787.10","794.30","783.20","26.03K","0.56%"
"Oct 15, 2020","798.40","793.60","798.50","791.00","37.52K","1.13%"
"Oct 16, 2020","793.80","798.90","799.00","792.20","25.23K","-0.58%"
"Oct 19, 2020","790.00","797.00","797.00","788.90","26.77K","-0.48%"
"Oct 20, 2020","788.40","791.60","795.00","788.00","33.35K","-0.20%"
"Oct 21, 2020","782.20","794.50","794.50","780.00","57.80K","-0.79%"
"Oct 22, 2020","778.80","785.90","788.00","778.40","32.99K","-0.43%"
"Oct 23, 2020","776.00","778.80","783.20","771.00","83.11K","-0.36%"
"Oct 26, 2020","775.80","779.10","782.20","774.50","42.03K","-0.03%"
"Oct 27, 2020","783.90","777.80","786.80","777.00","27.12K","1.04%"
"Oct 28, 2020","800.70","787.30","803.50","784.00","79.14K","2.14%"
"Oct 29, 2020","806.20","798.10","810.50","795.10","92.23K","0.69%"
"Oct 30, 2020","809.10","800.00","809.90","783.60","57.87K","0.36%"
"Nov 02, 2020","822.10","810.00","823.50","809.10","153.16K","1.61%"
"Nov 03, 2020","806.40","818.80","822.00","806.20","53.24K","-1.91%"
"Nov 05, 2020","784.40","804.80","804.90","784.40","80.26K","-2.73%"
"Nov 06, 2020","789.10","786.90","796.00","783.70","50.71K","0.60%"
"Nov 09, 2020","777.00","787.10","789.00","771.50","109.15K","-1.53%"
"Nov 10, 2020","779.90","780.00","783.90","775.00","57.96K","0.37%"
"Nov 11, 2020","785.20","780.50","785.90","774.10","47.44K","0.68%"
"Nov 12, 2020","787.70","787.40","789.60","780.30","42.10K","0.32%"
"Nov 13, 2020","790.00","787.30","791.50","782.00","122.24K","0.29%"
"Nov 16, 2020","775.80","785.60","787.00","770.00","133.38K","-1.80%"
"Nov 17, 2020","776.00","777.40","780.60","774.30","46.90K","0.03%"
"Nov 18, 2020","774.40","777.30","784.90","769.10","73.37K","-0.21%"
"Nov 19, 2020","774.50","775.20","780.00","770.20","29.90K","0.01%"
"Nov 20, 2020","775.50","775.50","776.90","772.20","43.73K","0.13%"