﻿"Date","Price","Open","High","Low","Vol.","Change %"
"May 20, 2020","1,204.60","1,226.80","1,226.80","1,198.20","6.60K","-1.10%"
"May 21, 2020","1,196.00","1,200.20","1,206.80","1,190.20","5.14K","-0.71%"
"May 22, 2020","1,211.00","1,200.00","1,214.20","1,198.60","1.44K","1.25%"
"May 25, 2020","1,209.00","1,207.60","1,211.60","1,200.00","1.37K","-0.17%"
"May 26, 2020","1,196.00","1,209.20","1,209.20","1,194.20","2.57K","-1.08%"
"May 27, 2020","1,207.80","1,196.00","1,207.80","1,196.00","2.11K","0.99%"
"May 28, 2020","1,198.00","1,198.60","1,219.60","1,192.20","61.63K","-0.81%"
"May 29, 2020","1,200.20","1,215.00","1,215.00","1,196.00","100.70K","0.18%"
"Jun 01, 2020","1,181.40","1,195.00","1,204.80","1,180.00","2.98K","-1.57%"
"Jun 02, 2020","1,170.00","1,179.00","1,179.00","1,165.00","8.66K","-0.96%"
"Jun 03, 2020","1,165.20","1,191.60","1,191.60","1,160.00","4.86K","-0.41%"
"Jun 04, 2020","1,180.40","1,175.20","1,182.00","1,169.40","7.33K","1.30%"
"Jun 05, 2020","1,161.20","1,200.00","1,210.20","1,160.20","4.01K","-1.63%"
"Jun 08, 2020","1,165.00","1,168.60","1,168.80","1,156.20","2.33K","0.33%"
"Jun 09, 2020","1,163.80","1,188.20","1,188.20","1,160.20","46.87K","-0.10%"
"Jun 10, 2020","1,171.20","1,154.80","1,172.40","1,154.80","5.46K","0.64%"
"Jun 11, 2020","1,183.20","1,179.60","1,183.20","1,165.00","2.26K","1.02%"
"Jun 15, 2020","1,185.00","1,193.80","1,194.80","1,180.40","3.08K","0.15%"
"Jun 16, 2020","1,184.00","1,185.00","1,187.60","1,175.00","3.11K","-0.08%"
"Jun 17, 2020","1,185.60","1,184.00","1,188.00","1,175.40","0.38K","0.14%"
"Jun 18, 2020","1,180.00","1,184.40","1,186.00","1,175.20","1.24K","-0.47%"
"Jun 19, 2020","1,182.60","1,187.60","1,195.00","1,179.00","2.10K","0.22%"
"Jun 22, 2020","1,178.00","1,189.60","1,192.60","1,177.40","2.41K","-0.39%"
"Jun 23, 2020","1,169.00","1,184.60","1,184.60","1,168.00","1.69K","-0.76%"
"Jun 25, 2020","1,173.80","1,189.40","1,189.40","1,169.60","2.84K","0.41%"
"Jun 26, 2020","1,181.80","1,175.80","1,190.00","1,169.40","2.54K","0.68%"
"Jun 29, 2020","1,190.00","1,181.00","1,193.40","1,181.00","2.71K","0.69%"
"Jun 30, 2020","1,204.00","1,194.40","1,209.00","1,190.20","31.94K","1.18%"
"Jul 02, 2020","1,194.00","1,195.40","1,201.00","1,190.40","6.06K","-0.83%"
"Jul 03, 2020","1,215.00","1,200.00","1,215.60","1,192.00","4.13K","1.76%"
"Jul 06, 2020","1,217.80","1,207.00","1,222.60","1,199.80","2.43K","0.23%"
"Jul 07, 2020","1,214.40","1,222.00","1,227.00","1,212.00","2.23K","-0.28%"
"Jul 08, 2020","1,212.00","1,215.00","1,215.00","1,205.00","44.76K","-0.20%"
"Jul 09, 2020","1,207.00","1,204.80","1,207.00","1,197.20","2.52K","-0.41%"
"Jul 10, 2020","1,206.80","1,215.00","1,215.20","1,201.20","1.04K","-0.02%"
"Jul 13, 2020","1,200.40","1,202.60","1,220.00","1,199.60","3.55K","-0.53%"
"Jul 14, 2020","1,208.20","1,206.00","1,212.80","1,203.80","2.42K","0.65%"
"Jul 15, 2020","1,205.20","1,209.20","1,220.00","1,190.00","20.62K","-0.25%"
"Jul 16, 2020","1,213.40","1,209.80","1,216.00","1,207.20","17.66K","0.68%"
"Jul 17, 2020","1,221.00","1,210.20","1,224.20","1,210.20","1.08K","0.63%"
"Jul 20, 2020","1,218.00","1,214.60","1,227.40","1,212.20","1.14K","-0.25%"
"Jul 21, 2020","1,206.40","1,219.20","1,219.20","1,203.40","1.81K","-0.95%"
"Jul 22, 2020","1,209.20","1,214.20","1,214.20","1,205.00","8.08K","0.23%"
"Jul 23, 2020","1,215.60","1,204.80","1,222.20","1,204.80","4.02K","0.53%"
"Jul 24, 2020","1,219.40","1,215.60","1,226.60","1,215.60","1.49K","0.31%"
"Jul 27, 2020","1,218.20","1,226.80","1,227.80","1,216.60","3.65K","-0.10%"
"Jul 28, 2020","1,232.00","1,224.80","1,235.00","1,218.80","7.53K","1.13%"
"Jul 29, 2020","1,231.80","1,237.60","1,238.80","1,227.20","1.85K","-0.02%"
"Jul 30, 2020","1,254.60","1,237.20","1,257.20","1,237.20","3.75K","1.85%"
"Jul 31, 2020","1,263.00","1,255.60","1,263.00","1,235.40","2.40K","0.67%"
"Aug 03, 2020","1,254.00","1,250.00","1,266.00","1,250.00","1.67K","-0.71%"
"Aug 04, 2020","1,256.20","1,253.20","1,262.20","1,247.60","2.29K","0.18%"
"Aug 05, 2020","1,242.40","1,236.20","1,252.00","1,236.20","2.22K","-1.10%"
"Aug 06, 2020","1,254.80","1,253.00","1,258.00","1,242.00","12.31K","1.00%"
"Aug 07, 2020","1,261.20","1,258.40","1,264.60","1,252.40","8.20K","0.51%"
"Aug 10, 2020","1,260.00","1,271.00","1,271.00","1,257.00","2.52K","-0.10%"
"Aug 11, 2020","1,253.60","1,261.40","1,261.60","1,246.60","2.67K","-0.51%"
"Aug 12, 2020","1,262.20","1,257.20","1,266.20","1,252.40","2.20K","0.69%"
"Aug 13, 2020","1,256.40","1,250.20","1,266.00","1,250.20","10.25K","-0.46%"
"Aug 14, 2020","1,250.80","1,252.40","1,260.00","1,250.80","1.82K","-0.45%"
"Aug 17, 2020","1,258.00","1,246.60","1,263.60","1,246.60","6.66K","0.58%"
"Aug 18, 2020","1,252.80","1,255.80","1,269.40","1,248.80","15.19K","-0.41%"
"Aug 19, 2020","1,254.00","1,249.00","1,261.80","1,246.60","1.03K","0.10%"
"Aug 20, 2020","1,270.00","1,257.00","1,270.00","1,249.80","35.48K","1.28%"
"Aug 21, 2020","1,278.00","1,265.00","1,280.00","1,261.40","28.66K","0.63%"
"Aug 24, 2020","1,273.20","1,270.20","1,283.00","1,268.20","1.40K","-0.38%"
"Aug 25, 2020","1,290.00","1,266.80","1,290.60","1,266.80","3.19K","1.32%"
"Aug 26, 2020","1,292.00","1,290.00","1,300.60","1,289.20","3.04K","0.16%"
"Aug 27, 2020","1,286.00","1,287.60","1,292.20","1,280.60","1.98K","-0.46%"
"Aug 28, 2020","1,274.00","1,280.60","1,296.40","1,264.00","3.23K","-0.93%"
"Aug 31, 2020","1,272.00","1,267.80","1,275.40","1,261.40","4.21K","-0.16%"
"Sep 01, 2020","1,259.60","1,261.60","1,265.60","1,258.60","3.43K","-0.97%"
"Sep 02, 2020","1,291.60","1,280.40","1,296.60","1,266.20","3.65K","2.54%"
"Sep 03, 2020","1,292.60","1,277.20","1,296.40","1,277.20","8.66K","0.08%"
"Sep 04, 2020","1,286.20","1,289.40","1,291.80","1,279.80","1.42K","-0.50%"
"Sep 07, 2020","1,299.00","1,296.80","1,305.80","1,290.80","2.66K","1.00%"
"Sep 08, 2020","1,306.00","1,293.40","1,316.80","1,293.40","17.32K","0.54%"
"Sep 09, 2020","1,290.00","1,315.80","1,315.80","1,290.00","1.47K","-1.23%"
"Sep 10, 2020","1,286.60","1,292.00","1,294.00","1,278.00","2.64K","-0.26%"
"Sep 11, 2020","1,285.00","1,309.20","1,309.20","1,280.20","1.17K","-0.12%"
"Sep 14, 2020","1,282.60","1,312.80","1,312.80","1,237.00","7.75K","-0.19%"
"Sep 15, 2020","1,280.00","1,273.20","1,287.20","1,273.20","1.44K","-0.20%"
"Sep 16, 2020","1,282.40","1,273.40","1,287.00","1,273.40","8.01K","0.19%"
"Sep 17, 2020","1,286.00","1,290.20","1,291.20","1,284.20","0.90K","0.28%"
"Sep 18, 2020","1,293.40","1,273.40","1,293.80","1,273.40","2.04K","0.58%"
"Sep 21, 2020","1,308.00","1,305.80","1,313.00","1,287.80","17.32K","1.13%"
"Sep 22, 2020","1,303.60","1,308.00","1,308.60","1,287.40","26.36K","-0.34%"
"Sep 23, 2020","1,311.40","1,293.40","1,315.00","1,293.40","3.23K","0.60%"
"Sep 24, 2020","1,317.00","1,315.80","1,321.00","1,313.00","1.88K","0.43%"
"Sep 25, 2020","1,335.00","1,319.20","1,337.00","1,307.20","2.52K","1.37%"
"Sep 28, 2020","1,347.40","1,353.60","1,353.60","1,337.60","2.55K","0.93%"
"Sep 29, 2020","1,347.40","1,348.00","1,359.80","1,336.00","5.45K","0.00%"
"Sep 30, 2020","1,320.80","1,360.00","1,360.00","1,320.80","3.71K","-1.97%"
"Oct 01, 2020","1,324.40","1,321.00","1,324.40","1,313.60","1.24K","0.27%"
"Oct 02, 2020","1,338.00","1,345.00","1,348.00","1,331.40","3.05K","1.03%"
"Oct 05, 2020","1,336.60","1,350.00","1,352.80","1,328.80","5.59K","-0.10%"
"Oct 06, 2020","1,329.40","1,349.80","1,349.80","1,327.40","5.04K","-0.54%"
"Oct 07, 2020","1,337.60","1,329.40","1,339.60","1,329.40","3.82K","0.62%"
"Oct 08, 2020","1,323.80","1,342.60","1,342.60","1,321.20","1.25K","-1.03%"
"Oct 09, 2020","1,313.40","1,321.20","1,321.40","1,311.80","4.26K","-0.79%"
"Oct 12, 2020","1,318.00","1,336.80","1,336.80","1,313.60","3.46K","0.35%"
"Oct 13, 2020","1,315.20","1,318.00","1,323.80","1,315.20","1.75K","-0.21%"
"Oct 14, 2020","1,326.40","1,318.40","1,327.40","1,318.40","1.27K","0.85%"
"Oct 15, 2020","1,339.40","1,335.40","1,340.00","1,317.40","1.69K","0.98%"
"Oct 16, 2020","1,331.40","1,317.60","1,339.80","1,317.60","3.34K","-0.60%"
"Oct 19, 2020","1,328.20","1,323.40","1,344.40","1,323.40","1.52K","-0.24%"
"Oct 20, 2020","1,327.00","1,327.00","1,336.00","1,325.60","5.40K","-0.09%"
"Oct 21, 2020","1,316.40","1,323.40","1,323.40","1,313.20","3.78K","-0.80%"
"Oct 22, 2020","1,310.80","1,310.00","1,323.00","1,309.40","28.60K","-0.43%"
"Oct 23, 2020","1,307.20","1,318.40","1,318.40","1,305.20","2.85K","-0.27%"
"Oct 26, 2020","1,305.40","1,333.20","1,333.20","1,303.60","3.08K","-0.14%"
"Oct 27, 2020","1,319.20","1,333.00","1,333.00","1,307.60","5.62K","1.06%"
"Oct 28, 2020","1,343.80","1,330.00","1,348.20","1,322.00","8.07K","1.86%"
"Oct 29, 2020","1,343.80","1,334.00","1,356.00","1,334.00","9.33K","0.00%"
"Oct 30, 2020","1,355.00","1,333.20","1,356.60","1,333.20","2.78K","0.83%"
"Nov 02, 2020","1,373.40","1,333.20","1,380.00","1,333.20","5.09K","1.36%"
"Nov 03, 2020","1,354.20","1,399.80","1,399.80","1,352.40","3.32K","-1.40%"
"Nov 05, 2020","1,324.80","1,436.20","1,436.20","1,320.20","11.14K","-2.17%"
"Nov 06, 2020","1,328.40","1,327.60","1,338.20","1,323.00","6.92K","0.27%"
"Nov 09, 2020","1,306.60","1,367.60","1,367.60","1,300.20","6.31K","-1.64%"
"Nov 10, 2020","1,312.00","1,410.80","1,410.80","1,308.40","12.96K","0.41%"
"Nov 11, 2020","1,321.60","1,319.60","1,322.80","1,305.60","4.63K","0.73%"
"Nov 12, 2020","1,321.60","1,314.40","1,328.40","1,314.40","3.31K","0.00%"
"Nov 13, 2020","1,333.00","1,330.00","1,333.00","1,324.00","4.54K","0.86%"
"Nov 16, 2020","1,319.80","1,322.20","1,324.00","1,313.00","7.94K","-0.99%"
"Nov 17, 2020","1,315.60","1,329.80","1,329.80","1,312.00","3.76K","-0.32%"
"Nov 18, 2020","1,309.40","1,305.40","1,313.60","1,302.00","4.65K","-0.47%"
"Nov 19, 2020","1,312.60","1,318.00","1,318.00","1,300.20","2.17K","0.24%"
"Nov 20, 2020","1,309.40","1,302.00","1,310.80","1,302.00","1.70K","-0.24%"