﻿"Date","Price","Open","High","Low","Vol.","Change %"
"May 20, 2020","1,282.50","1,255.00","1,284.50","1,245.50","23.56K","2.31%"
"May 21, 2020","1,263.50","1,285.00","1,311.00","1,252.50","49.80K","-1.48%"
"May 22, 2020","1,261.50","1,262.50","1,263.00","1,244.00","17.17K","-0.16%"
"May 25, 2020","1,280.00","1,283.00","1,283.00","1,260.00","20.68K","1.47%"
"May 26, 2020","1,283.00","1,298.50","1,299.50","1,277.00","35.81K","0.23%"
"May 27, 2020","1,273.00","1,299.00","1,299.50","1,260.50","26.83K","-0.78%"
"May 28, 2020","1,290.50","1,275.50","1,292.00","1,264.00","42.79K","1.37%"
"May 29, 2020","1,279.00","1,296.50","1,297.00","1,265.00","76.43K","-0.89%"
"Jun 01, 2020","1,284.00","1,285.00","1,318.00","1,273.00","29.77K","0.39%"
"Jun 02, 2020","1,297.50","1,290.00","1,301.00","1,280.00","24.77K","1.05%"
"Jun 03, 2020","1,316.50","1,320.00","1,327.00","1,298.00","43.52K","1.46%"
"Jun 04, 2020","1,288.00","1,319.50","1,319.50","1,285.00","31.61K","-2.16%"
"Jun 05, 2020","1,302.00","1,290.00","1,317.50","1,286.50","49.97K","1.09%"
"Jun 08, 2020","1,306.00","1,291.50","1,314.50","1,291.50","81.77K","0.31%"
"Jun 09, 2020","1,299.00","1,313.00","1,316.00","1,287.50","22.34K","-0.54%"
"Jun 10, 2020","1,294.50","1,305.50","1,305.50","1,287.50","19.29K","-0.35%"
"Jun 11, 2020","1,275.00","1,300.00","1,300.00","1,269.50","23.26K","-1.51%"
"Jun 15, 2020","1,267.00","1,260.00","1,268.50","1,245.50","51.02K","-0.63%"
"Jun 16, 2020","1,286.00","1,280.00","1,295.50","1,274.00","37.15K","1.50%"
"Jun 17, 2020","1,278.50","1,289.50","1,293.50","1,275.00","18.10K","-0.58%"
"Jun 18, 2020","1,271.50","1,270.00","1,286.00","1,260.50","12.60K","-0.55%"
"Jun 19, 2020","1,284.50","1,272.00","1,293.50","1,271.50","40.52K","1.02%"
"Jun 22, 2020","1,288.00","1,280.50","1,290.00","1,273.00","13.58K","0.27%"
"Jun 23, 2020","1,303.00","1,281.00","1,303.00","1,281.00","21.14K","1.16%"
"Jun 25, 2020","1,291.00","1,300.00","1,300.00","1,281.00","19.53K","-0.92%"
"Jun 26, 2020","1,288.50","1,286.00","1,300.00","1,283.00","22.08K","-0.19%"
"Jun 29, 2020","1,290.00","1,293.00","1,293.00","1,280.00","13.32K","0.12%"
"Jun 30, 2020","1,283.00","1,297.50","1,298.00","1,283.00","21.28K","-0.54%"
"Jul 02, 2020","1,299.00","1,285.50","1,300.00","1,284.50","28.13K","1.25%"
"Jul 03, 2020","1,306.50","1,303.00","1,307.50","1,298.50","16.66K","0.58%"
"Jul 06, 2020","1,323.00","1,313.00","1,332.00","1,307.50","23.95K","1.26%"
"Jul 07, 2020","1,322.00","1,308.00","1,331.00","1,308.00","9.44K","-0.08%"
"Jul 08, 2020","1,316.00","1,326.50","1,326.50","1,308.00","19.67K","-0.45%"
"Jul 09, 2020","1,309.00","1,310.50","1,322.50","1,307.00","13.32K","-0.53%"
"Jul 10, 2020","1,316.50","1,318.50","1,318.50","1,304.00","13.84K","0.57%"
"Jul 13, 2020","1,305.50","1,319.00","1,328.50","1,302.00","10.17K","-0.84%"
"Jul 14, 2020","1,292.50","1,300.00","1,303.00","1,275.50","28.86K","-1.00%"
"Jul 15, 2020","1,307.50","1,292.00","1,317.00","1,270.00","9.42K","1.16%"
"Jul 16, 2020","1,318.50","1,314.50","1,319.50","1,303.00","19.64K","0.84%"
"Jul 17, 2020","1,324.00","1,310.50","1,324.00","1,310.50","27.75K","0.42%"
"Jul 20, 2020","1,339.50","1,304.00","1,339.50","1,302.50","28.56K","1.17%"
"Jul 21, 2020","1,347.00","1,350.00","1,360.00","1,335.50","34.31K","0.56%"
"Jul 22, 2020","1,354.50","1,356.00","1,358.00","1,331.50","18.89K","0.56%"
"Jul 23, 2020","1,360.00","1,358.00","1,369.00","1,355.00","18.37K","0.41%"
"Jul 24, 2020","1,362.00","1,350.50","1,372.00","1,347.00","56.56K","0.15%"
"Jul 27, 2020","1,382.00","1,388.50","1,388.50","1,350.50","11.99K","1.47%"
"Jul 28, 2020","1,378.50","1,382.00","1,396.00","1,373.00","20.82K","-0.25%"
"Jul 29, 2020","1,392.50","1,373.50","1,392.50","1,373.50","19.17K","1.02%"
"Jul 30, 2020","1,376.00","1,400.00","1,400.00","1,370.50","20.21K","-1.18%"
"Jul 31, 2020","1,389.00","1,395.00","1,395.00","1,377.00","22.09K","0.94%"
"Aug 03, 2020","1,400.00","1,390.50","1,405.00","1,373.00","55.82K","0.79%"
"Aug 04, 2020","1,403.00","1,407.50","1,407.50","1,395.00","31.95K","0.21%"
"Aug 05, 2020","1,428.50","1,404.00","1,428.50","1,404.00","23.48K","1.82%"
"Aug 06, 2020","1,424.50","1,438.50","1,439.50","1,420.50","10.82K","-0.28%"
"Aug 07, 2020","1,419.50","1,436.00","1,436.00","1,415.50","18.17K","-0.35%"
"Aug 10, 2020","1,415.00","1,415.50","1,430.00","1,414.00","9.15K","-0.32%"
"Aug 11, 2020","1,434.50","1,425.00","1,437.00","1,417.00","22.98K","1.38%"
"Aug 12, 2020","1,449.00","1,431.00","1,452.00","1,423.50","8.42K","1.01%"
"Aug 13, 2020","1,465.50","1,456.00","1,469.50","1,432.00","66.20K","1.14%"
"Aug 14, 2020","1,460.50","1,478.00","1,478.00","1,452.00","32.39K","-0.34%"
"Aug 17, 2020","1,456.00","1,453.00","1,480.00","1,450.00","57.58K","-0.31%"
"Aug 18, 2020","1,456.50","1,456.00","1,466.00","1,444.50","20.65K","0.03%"
"Aug 19, 2020","1,460.00","1,451.00","1,468.00","1,448.50","61.82K","0.24%"
"Aug 20, 2020","1,430.00","1,458.00","1,464.50","1,428.00","34.15K","-2.05%"
"Aug 21, 2020","1,430.50","1,432.00","1,449.00","1,418.00","48.89K","0.03%"
"Aug 24, 2020","1,444.00","1,436.00","1,448.50","1,425.50","28.79K","0.94%"
"Aug 25, 2020","1,441.50","1,449.00","1,454.50","1,440.00","12.36K","-0.17%"
"Aug 26, 2020","1,454.00","1,449.00","1,456.50","1,441.50","18.89K","0.87%"
"Aug 27, 2020","1,435.50","1,454.00","1,456.00","1,430.00","19.80K","-1.27%"
"Aug 28, 2020","1,423.00","1,443.50","1,443.50","1,419.50","76.25K","-0.87%"
"Aug 31, 2020","1,414.00","1,423.50","1,451.50","1,412.00","31.26K","-0.63%"
"Sep 01, 2020","1,420.50","1,413.50","1,441.50","1,413.50","22.11K","0.46%"
"Sep 02, 2020","1,409.50","1,425.50","1,434.50","1,405.00","32.36K","-0.77%"
"Sep 03, 2020","1,393.00","1,415.00","1,419.50","1,391.00","42.34K","-1.17%"
"Sep 04, 2020","1,395.00","1,390.00","1,404.50","1,374.00","13.72K","0.14%"
"Sep 07, 2020","1,403.00","1,375.00","1,408.00","1,375.00","14.27K","0.57%"
"Sep 08, 2020","1,382.50","1,409.50","1,410.00","1,373.50","27.21K","-1.46%"
"Sep 09, 2020","1,375.50","1,400.00","1,400.00","1,372.00","13.17K","-0.51%"
"Sep 10, 2020","1,384.00","1,404.50","1,404.50","1,366.00","11.80K","0.62%"
"Sep 11, 2020","1,390.50","1,400.00","1,401.50","1,373.50","31.69K","0.47%"
"Sep 14, 2020","1,399.50","1,405.50","1,422.00","1,393.00","44.29K","0.65%"
"Sep 15, 2020","1,423.50","1,392.50","1,425.00","1,392.50","9.93K","1.71%"
"Sep 16, 2020","1,420.50","1,429.50","1,429.50","1,415.00","29.47K","-0.21%"
"Sep 17, 2020","1,419.50","1,419.00","1,419.50","1,407.00","7.48K","-0.07%"
"Sep 18, 2020","1,408.00","1,417.00","1,419.00","1,408.00","11.80K","-0.81%"
"Sep 21, 2020","1,366.50","1,405.00","1,405.00","1,366.00","58.00K","-2.95%"
"Sep 22, 2020","1,381.50","1,360.50","1,390.00","1,360.00","20.77K","1.10%"
"Sep 23, 2020","1,392.50","1,375.50","1,418.50","1,375.50","24.38K","0.80%"
"Sep 24, 2020","1,390.50","1,392.50","1,392.50","1,369.50","20.62K","-0.14%"
"Sep 25, 2020","1,384.00","1,393.50","1,393.50","1,372.50","18.53K","-0.47%"
"Sep 28, 2020","1,402.00","1,380.00","1,410.00","1,372.00","20.71K","1.30%"
"Sep 29, 2020","1,394.50","1,398.00","1,410.50","1,383.00","16.49K","-0.53%"
"Sep 30, 2020","1,393.50","1,392.50","1,398.00","1,385.00","43.75K","-0.07%"
"Oct 01, 2020","1,381.50","1,387.50","1,409.00","1,379.50","11.14K","-0.86%"
"Oct 02, 2020","1,383.50","1,375.50","1,386.00","1,370.00","26.50K","0.14%"
"Oct 05, 2020","1,394.50","1,373.50","1,396.50","1,373.50","19.17K","0.80%"
"Oct 06, 2020","1,401.00","1,399.00","1,408.50","1,398.50","7.75K","0.47%"
"Oct 07, 2020","1,376.50","1,401.00","1,409.50","1,376.00","35.66K","-1.75%"
"Oct 08, 2020","1,377.00","1,389.50","1,398.50","1,375.00","6.57K","0.04%"
"Oct 09, 2020","1,378.00","1,389.00","1,389.00","1,362.50","38.76K","0.07%"
"Oct 12, 2020","1,382.50","1,387.00","1,391.50","1,374.50","5.84K","0.33%"
"Oct 13, 2020","1,375.50","1,382.50","1,389.50","1,372.50","38.47K","-0.51%"
"Oct 14, 2020","1,386.50","1,379.00","1,388.50","1,373.50","8.84K","0.80%"
"Oct 15, 2020","1,365.50","1,389.00","1,389.00","1,362.50","6.74K","-1.51%"
"Oct 16, 2020","1,360.50","1,368.50","1,379.50","1,354.00","27.95K","-0.37%"
"Oct 19, 2020","1,357.50","1,368.50","1,373.00","1,355.00","19.34K","-0.22%"
"Oct 20, 2020","1,365.00","1,357.50","1,371.00","1,349.00","12.78K","0.55%"
"Oct 21, 2020","1,358.00","1,379.00","1,379.50","1,353.50","30.43K","-0.51%"
"Oct 22, 2020","1,361.50","1,353.00","1,369.00","1,353.00","15.87K","0.26%"
"Oct 23, 2020","1,370.00","1,366.00","1,375.00","1,360.50","23.61K","0.62%"
"Oct 26, 2020","1,357.50","1,374.50","1,374.50","1,355.50","13.82K","-0.91%"
"Oct 27, 2020","1,344.00","1,357.50","1,367.50","1,341.50","5.68K","-0.99%"
"Oct 28, 2020","1,311.00","1,342.50","1,342.50","1,303.50","39.79K","-2.46%"
"Oct 29, 2020","1,321.00","1,319.50","1,327.00","1,305.50","28.09K","0.76%"
"Oct 30, 2020","1,310.50","1,321.00","1,321.00","1,296.00","25.71K","-0.79%"
"Nov 02, 2020","1,333.50","1,319.50","1,334.50","1,294.00","32.66K","1.76%"
"Nov 03, 2020","1,356.50","1,332.00","1,358.00","1,332.00","23.00K","1.72%"
"Nov 05, 2020","1,391.50","1,360.00","1,396.00","1,360.00","26.08K","2.58%"
"Nov 06, 2020","1,403.50","1,391.00","1,407.50","1,376.50","12.49K","0.86%"
"Nov 09, 2020","1,454.00","1,404.00","1,454.00","1,404.00","133.65K","3.60%"
"Nov 10, 2020","1,454.50","1,442.50","1,463.50","1,392.50","89.67K","0.03%"
"Nov 11, 2020","1,463.50","1,454.00","1,473.00","1,453.50","35.15K","0.62%"
"Nov 12, 2020","1,470.00","1,459.50","1,471.00","1,441.00","15.56K","0.44%"
"Nov 13, 2020","1,470.00","1,460.50","1,471.50","1,455.50","16.16K","0.00%"
"Nov 16, 2020","1,497.00","1,476.50","1,497.50","1,476.50","34.83K","1.84%"
"Nov 17, 2020","1,480.00","1,483.00","1,499.00","1,470.50","10.77K","-1.14%"
"Nov 18, 2020","1,498.00","1,489.00","1,499.00","1,476.50","17.66K","1.22%"
"Nov 19, 2020","1,482.50","1,489.50","1,495.00","1,476.50","67.32K","-1.03%"
"Nov 20, 2020","1,482.50","1,479.50","1,487.00","1,475.00","20.12K","0.00%"