﻿"Date","Price","Open","High","Low","Vol.","Change %"
"Sep 18, 2018","566.00","574.50","579.50","565.00","22.08K","-1.22%"
"Sep 19, 2018","562.50","570.00","570.50","562.00","10.63K","-0.62%"
"Sep 20, 2018","559.50","562.00","567.00","556.50","11.45K","-0.53%"
"Sep 21, 2018","558.50","562.00","566.00","557.00","18.62K","-0.18%"
"Sep 24, 2018","554.00","558.50","558.50","552.00","10.77K","-0.81%"
"Sep 25, 2018","554.00","555.00","556.50","551.00","5.50K","0.00%"
"Sep 26, 2018","552.00","556.50","556.50","551.00","8.89K","-0.36%"
"Sep 27, 2018","543.50","555.00","556.00","543.50","11.53K","-1.54%"
"Sep 28, 2018","547.00","543.50","547.00","540.00","8.79K","0.64%"
"Oct 01, 2018","544.00","547.50","554.00","542.50","17.02K","-0.55%"
"Oct 02, 2018","552.00","548.50","553.50","543.50","6.77K","1.47%"
"Oct 03, 2018","551.00","553.00","555.00","545.00","15.05K","-0.18%"
"Oct 04, 2018","562.00","551.00","565.00","551.00","15.65K","2.00%"
"Oct 05, 2018","558.50","563.50","566.00","556.50","15.34K","-0.62%"
"Oct 08, 2018","559.00","560.00","562.00","553.50","24.68K","0.09%"
"Oct 09, 2018","556.00","560.50","560.50","551.50","3.25K","-0.54%"
"Oct 10, 2018","554.50","558.50","558.50","548.50","21.82K","-0.27%"
"Oct 11, 2018","566.50","559.50","570.00","553.00","48.18K","2.16%"
"Oct 12, 2018","566.50","553.00","572.00","553.00","24.43K","0.00%"
"Oct 15, 2018","564.00","567.00","568.00","560.50","21.09K","-0.44%"
"Oct 16, 2018","560.00","564.50","565.00","557.50","12.18K","-0.71%"
"Oct 17, 2018","561.50","560.50","564.50","558.00","26.26K","0.27%"
"Oct 18, 2018","565.50","562.00","566.00","560.00","7.15K","0.71%"
"Oct 19, 2018","562.50","567.00","567.00","561.00","4.95K","-0.53%"
"Oct 22, 2018","556.50","560.50","564.00","555.00","12.76K","-1.07%"
"Oct 23, 2018","565.50","559.50","568.00","559.50","46.57K","1.62%"
"Oct 24, 2018","564.00","569.00","572.00","559.00","10.61K","-0.27%"
"Oct 25, 2018","565.00","568.00","570.00","563.50","14.59K","0.18%"
"Oct 26, 2018","571.00","567.00","571.00","565.50","11.43K","1.06%"
"Oct 29, 2018","565.50","571.50","571.50","562.50","34.35K","-0.96%"
"Oct 30, 2018","562.00","567.00","569.50","560.50","5.68K","-0.62%"
"Oct 31, 2018","559.00","562.00","562.00","557.00","11.08K","-0.53%"
"Nov 01, 2018","565.50","556.00","566.50","556.00","4.92K","1.16%"
"Nov 02, 2018","569.00","567.00","570.00","563.50","6.90K","0.62%"
"Nov 06, 2018","568.50","569.50","571.00","564.50","10.18K","-0.09%"
"Nov 07, 2018","568.50","565.50","570.50","565.50","6.80K","0.00%"
"Nov 08, 2018","570.50","570.50","571.50","564.50","11.00K","0.35%"
"Nov 09, 2018","572.00","570.50","573.50","567.50","23.03K","0.26%"
"Nov 12, 2018","570.00","573.50","573.50","567.50","5.13K","-0.35%"
"Nov 13, 2018","572.50","570.50","572.50","567.50","50.40K","0.44%"
"Nov 14, 2018","564.50","573.00","574.50","563.00","62.01K","-1.40%"
"Nov 15, 2018","564.50","567.00","567.00","562.00","19.00K","0.00%"
"Nov 16, 2018","563.50","562.00","564.50","559.50","4.95K","-0.18%"
"Nov 19, 2018","563.00","565.00","567.50","561.00","6.96K","-0.09%"
"Nov 20, 2018","563.50","564.50","565.50","561.00","6.67K","0.09%"
"Nov 21, 2018","566.00","566.00","566.50","563.00","3.09K","0.44%"
"Nov 22, 2018","563.50","567.00","567.50","561.50","5.11K","-0.44%"
"Nov 23, 2018","567.00","564.50","567.00","561.00","3.41K","0.62%"
"Nov 26, 2018","573.00","564.00","578.00","564.00","17.41K","1.06%"
"Nov 27, 2018","571.00","573.00","578.00","568.50","4.76K","-0.35%"
"Nov 28, 2018","572.50","570.50","575.00","566.00","6.53K","0.26%"
"Nov 29, 2018","568.50","568.00","573.50","567.00","2.91K","-0.70%"
"Nov 30, 2018","571.50","569.00","573.00","567.00","5.64K","0.53%"
"Dec 03, 2018","574.00","570.00","574.00","567.50","19.36K","0.44%"
"Dec 04, 2018","577.00","571.00","578.00","555.00","66.24K","0.52%"
"Dec 05, 2018","577.50","578.00","578.50","575.00","12.15K","0.09%"
"Dec 06, 2018","581.00","578.00","582.50","575.00","35.63K","0.61%"
"Dec 07, 2018","575.00","577.50","584.50","573.00","9.36K","-1.03%"
"Dec 10, 2018","578.50","576.00","579.00","575.00","5.61K","0.61%"
"Dec 11, 2018","577.50","578.50","580.00","575.00","9.60K","-0.17%"
"Dec 12, 2018","577.50","580.00","580.00","574.50","5.64K","0.00%"
"Dec 13, 2018","575.00","575.00","578.50","573.00","7.18K","-0.43%"
"Dec 14, 2018","576.00","579.50","579.50","573.00","8.67K","0.17%"
"Dec 17, 2018","578.50","577.00","579.00","571.50","5.90K","0.43%"
"Dec 18, 2018","582.50","576.50","582.50","576.50","20.18K","0.69%"
"Dec 19, 2018","590.50","583.00","593.50","576.50","22.24K","1.37%"
"Dec 20, 2018","598.00","589.50","599.50","580.00","24.42K","1.27%"
"Dec 21, 2018","601.50","599.00","605.00","597.00","29.35K","0.59%"
"Dec 24, 2018","604.50","599.50","612.00","594.50","87.18K","0.50%"
"Dec 25, 2018","608.00","607.00","610.00","605.50","67.96K","0.58%"
"Dec 26, 2018","617.00","608.00","621.00","608.00","59.22K","1.48%"
"Dec 27, 2018","619.00","620.00","621.50","595.50","57.29K","0.32%"
"Dec 28, 2018","623.50","621.00","624.50","617.50","28.58K","0.73%"
"Dec 29, 2018","624.50","625.00","626.00","620.00","27.91K","0.16%"
"Jan 03, 2019","622.50","625.50","629.50","620.50","68.89K","-0.32%"
"Jan 04, 2019","609.00","622.50","623.00","607.00","61.44K","-2.17%"
"Jan 08, 2019","601.50","606.50","607.50","598.50","25.21K","-1.23%"
"Jan 09, 2019","603.00","598.50","605.00","595.00","15.71K","0.25%"
"Jan 10, 2019","607.50","603.00","612.00","603.00","102.84K","0.75%"
"Jan 11, 2019","606.50","610.00","610.00","603.50","9.38K","-0.16%"
"Jan 14, 2019","605.50","606.50","609.00","604.00","13.37K","-0.16%"
"Jan 15, 2019","605.00","607.00","607.00","603.00","23.92K","-0.08%"
"Jan 16, 2019","602.00","605.50","605.50","599.00","35.67K","-0.50%"
"Jan 17, 2019","600.50","598.50","603.00","580.00","14.59K","-0.25%"
"Jan 18, 2019","594.50","598.00","600.00","593.00","14.09K","-1.00%"
"Jan 21, 2019","595.50","595.00","596.50","592.00","8.81K","0.17%"
"Jan 22, 2019","596.00","597.50","599.00","594.00","11.90K","0.08%"
"Jan 23, 2019","594.00","596.00","597.50","591.50","14.68K","-0.34%"
"Jan 24, 2019","590.50","595.00","595.00","588.00","6.52K","-0.59%"
"Jan 25, 2019","599.50","591.50","600.50","590.00","10.40K","1.52%"
"Jan 28, 2019","603.50","599.00","604.50","599.00","12.13K","0.67%"
"Jan 29, 2019","606.00","604.50","608.50","603.50","16.40K","0.41%"
"Jan 30, 2019","605.50","607.00","609.00","603.50","14.65K","-0.08%"
"Jan 31, 2019","606.00","608.00","608.50","602.00","14.65K","0.08%"
"Feb 01, 2019","603.60","603.00","607.00","602.40","7.29K","-0.40%"
"Feb 04, 2019","604.00","607.00","608.20","600.60","23.35K","0.07%"
"Feb 05, 2019","603.00","603.60","604.60","600.00","9.31K","-0.17%"
"Feb 06, 2019","604.00","605.00","605.20","601.80","4.59K","0.17%"
"Feb 07, 2019","603.00","605.20","608.60","600.80","7.52K","-0.17%"
"Feb 08, 2019","604.20","606.80","608.20","601.20","8.68K","0.20%"
"Feb 11, 2019","602.60","602.20","603.40","599.00","18.13K","-0.26%"
"Feb 12, 2019","601.80","602.60","607.80","601.40","34.06K","-0.13%"
"Feb 13, 2019","605.00","607.40","607.40","602.00","5.79K","0.53%"
"Feb 14, 2019","609.80","606.20","611.60","605.60","68.64K","0.79%"
"Feb 15, 2019","609.40","608.40","615.40","608.00","53.85K","-0.07%"
"Feb 18, 2019","609.00","611.00","612.80","607.20","9.34K","-0.07%"
"Feb 19, 2019","614.40","612.60","614.40","608.00","13.02K","0.89%"
"Feb 20, 2019","615.80","614.60","623.20","612.80","30.19K","0.23%"
"Feb 21, 2019","608.80","615.80","617.00","608.00","8.75K","-1.14%"
"Feb 22, 2019","606.80","608.80","608.80","605.60","7.58K","-0.33%"
"Feb 25, 2019","607.00","614.60","614.60","604.00","80.33K","0.03%"
"Feb 26, 2019","605.80","607.00","608.60","604.40","11.48K","-0.20%"
"Feb 27, 2019","607.60","606.40","609.40","605.00","9.64K","0.30%"
"Feb 28, 2019","603.40","609.00","609.00","602.00","26.87K","-0.69%"
"Mar 01, 2019","600.80","606.80","606.80","600.00","15.87K","-0.43%"
"Mar 04, 2019","588.80","597.20","599.00","588.00","33.48K","-2.00%"
"Mar 05, 2019","590.60","585.40","592.00","585.40","23.51K","0.31%"
"Mar 06, 2019","591.00","594.00","597.80","590.00","16.65K","0.07%"
"Mar 07, 2019","593.00","595.40","597.00","590.00","8.11K","0.34%"
"Mar 11, 2019","597.00","589.20","599.00","589.20","11.30K","0.67%"
"Mar 12, 2019","596.80","598.40","598.40","594.00","6.32K","-0.03%"
"Mar 13, 2019","597.20","599.00","599.00","595.00","5.63K","0.07%"
"Mar 14, 2019","591.20","595.00","598.00","589.20","19.45K","-1.00%"
"Mar 15, 2019","592.60","593.80","594.80","592.60","6.80K","0.24%"
"Mar 18, 2019","585.60","591.00","591.20","584.20","24.82K","-1.18%"
"Mar 19, 2019","587.60","589.40","589.40","583.60","8.34K","0.34%"
"Mar 20, 2019","584.80","586.00","587.20","584.00","10.50K","-0.48%"
"Mar 21, 2019","582.80","588.60","588.60","582.40","10.79K","-0.34%"
"Mar 22, 2019","591.80","587.40","592.00","583.00","10.54K","1.54%"
"Mar 25, 2019","591.00","591.00","594.00","588.40","18.49K","-0.14%"
"Mar 26, 2019","590.20","593.00","593.00","587.80","18.48K","-0.14%"
"Mar 27, 2019","592.60","592.80","595.00","591.00","8.17K","0.41%"
"Mar 28, 2019","588.20","595.80","595.80","586.80","12.92K","-0.74%"
"Mar 29, 2019","592.80","591.80","593.00","580.40","14.70K","0.78%"
"Apr 01, 2019","588.20","592.00","592.20","583.00","11.46K","-0.78%"
"Apr 02, 2019","587.60","588.20","589.20","585.00","6.22K","-0.10%"
"Apr 03, 2019","587.00","589.00","589.00","585.20","6.41K","-0.10%"
"Apr 04, 2019","588.00","590.00","599.00","585.80","53.47K","0.17%"
"Apr 05, 2019","586.80","586.20","589.20","586.20","9.70K","-0.20%"
"Apr 08, 2019","587.80","592.00","597.60","585.00","9.74K","0.17%"
"Apr 09, 2019","588.60","586.20","591.20","586.00","6.31K","0.14%"
"Apr 10, 2019","588.80","588.80","590.40","585.80","6.32K","0.03%"
"Apr 11, 2019","584.20","588.00","590.40","582.60","12.73K","-0.78%"
"Apr 12, 2019","580.20","588.80","588.80","579.00","23.53K","-0.68%"
"Apr 15, 2019","574.60","586.20","587.00","571.00","77.55K","-0.97%"
"Apr 16, 2019","571.00","574.60","575.80","570.00","13.90K","-0.63%"
"Apr 17, 2019","567.80","571.00","571.00","566.60","13.74K","-0.56%"
"Apr 18, 2019","568.00","566.00","571.00","565.20","10.04K","0.04%"
"Apr 19, 2019","569.20","570.00","572.80","567.40","6.07K","0.21%"
"Apr 22, 2019","567.40","571.80","571.80","566.00","20.06K","-0.32%"
"Apr 23, 2019","564.20","568.80","568.80","563.00","10.22K","-0.56%"
"Apr 24, 2019","571.40","564.20","571.40","564.20","6.83K","1.28%"
"Apr 25, 2019","575.20","571.00","579.40","570.80","13.92K","0.67%"
"Apr 26, 2019","581.00","574.40","582.20","574.40","8.01K","1.01%"
"Apr 29, 2019","575.40","581.80","585.00","572.80","8.31K","-0.96%"
"Apr 30, 2019","578.00","575.00","579.80","574.40","5.65K","0.45%"
"May 02, 2019","579.00","578.00","579.20","574.40","2.97K","0.17%"
"May 03, 2019","580.60","579.80","581.40","576.80","16.67K","0.28%"
"May 06, 2019","582.00","580.60","594.00","579.40","36.37K","0.24%"
"May 07, 2019","583.00","585.20","585.20","565.00","12.35K","0.17%"
"May 08, 2019","581.00","583.20","586.80","578.80","11.82K","-0.34%"
"May 10, 2019","584.00","585.00","587.00","581.60","19.39K","0.52%"
"May 13, 2019","591.40","580.00","592.00","580.00","28.33K","1.27%"
"May 14, 2019","586.20","590.00","591.00","585.40","19.17K","-0.88%"
"May 15, 2019","582.00","586.00","587.60","581.00","8.52K","-0.72%"
"May 16, 2019","577.40","585.00","585.00","576.80","13.16K","-0.79%"
"May 17, 2019","575.00","583.60","586.00","575.00","11.88K","-0.42%"
"May 20, 2019","572.60","580.00","580.00","572.00","7.46K","-0.42%"
"May 21, 2019","572.00","573.00","574.20","570.40","11.71K","-0.10%"
"May 22, 2019","571.60","573.80","576.00","569.20","10.27K","-0.07%"
"May 23, 2019","579.00","573.80","581.00","570.40","17.12K","1.29%"
"May 24, 2019","577.00","581.00","581.60","575.00","11.71K","-0.35%"
"May 27, 2019","576.40","574.60","581.60","574.40","6.56K","-0.10%"
"May 28, 2019","575.80","580.00","580.00","570.00","9.38K","-0.10%"
"May 29, 2019","580.20","578.00","583.20","572.20","18.30K","0.76%"
"May 30, 2019","582.00","580.20","583.80","576.60","6.51K","0.31%"
"May 31, 2019","590.60","586.40","592.20","585.20","56.25K","1.48%"
"Jun 03, 2019","599.80","595.60","600.20","593.80","19.29K","1.56%"
"Jun 04, 2019","598.40","601.40","603.00","597.00","16.48K","-0.23%"
"Jun 05, 2019","601.40","600.40","606.00","599.40","12.80K","0.50%"
"Jun 06, 2019","604.00","602.20","604.20","601.40","5.37K","0.43%"
"Jun 07, 2019","604.20","600.00","605.80","597.60","18.68K","0.03%"
"Jun 10, 2019","595.20","599.80","599.80","594.80","12.35K","-1.49%"
"Jun 11, 2019","592.20","594.60","594.60","590.40","17.70K","-0.50%"
"Jun 13, 2019","599.00","596.80","601.00","593.80","14.41K","1.15%"
"Jun 14, 2019","603.00","601.00","606.60","600.00","31.83K","0.67%"
"Jun 17, 2019","595.80","595.60","603.80","594.00","10.57K","-1.19%"
"Jun 18, 2019","598.20","599.80","602.40","594.00","14.23K","0.40%"
"Jun 19, 2019","595.20","600.00","602.20","594.40","5.63K","-0.50%"
"Jun 20, 2019","605.00","604.20","612.00","602.20","23.65K","1.65%"
"Jun 21, 2019","612.80","608.60","615.40","605.20","25.56K","1.29%"
"Jun 24, 2019","616.00","608.00","616.00","596.00","11.00K","0.52%"
"Jun 25, 2019","621.60","616.80","624.80","615.80","28.14K","0.91%"
"Jun 26, 2019","616.00","617.40","618.20","611.20","33.04K","-0.90%"
"Jun 27, 2019","613.20","616.00","616.00","611.20","12.69K","-0.45%"
"Jun 28, 2019","617.40","615.40","619.40","611.60","17.82K","0.68%"
"Jul 01, 2019","606.00","606.60","617.00","602.60","26.56K","-1.85%"
"Jul 02, 2019","614.80","611.60","614.80","606.60","14.47K","1.45%"
"Jul 03, 2019","621.60","618.40","628.20","617.20","22.47K","1.11%"
"Jul 04, 2019","622.80","621.00","623.20","612.00","8.93K","0.19%"
"Jul 05, 2019","619.40","617.00","625.00","611.60","17.67K","-0.55%"
"Jul 08, 2019","616.00","624.00","625.60","614.20","25.30K","-0.55%"
"Jul 09, 2019","618.20","622.00","622.40","613.60","32.37K","0.36%"
"Jul 10, 2019","616.40","618.00","620.00","612.80","23.59K","-0.29%"
"Jul 11, 2019","614.20","619.40","623.80","614.20","16.43K","-0.36%"
"Jul 12, 2019","615.00","614.20","618.60","613.00","20.49K","0.13%"
"Jul 15, 2019","614.00","618.00","619.20","612.00","22.48K","-0.16%"
"Jul 16, 2019","615.00","614.60","617.80","613.00","20.46K","0.16%"
"Jul 17, 2019","620.80","613.00","621.60","610.40","10.99K","0.94%"
"Jul 18, 2019","624.20","622.00","624.20","618.60","38.20K","0.55%"
"Jul 19, 2019","622.40","624.20","629.00","620.60","91.18K","-0.29%"
"Jul 22, 2019","624.20","627.80","627.80","621.20","13.34K","0.29%"
"Jul 23, 2019","622.60","623.00","626.00","619.40","34.29K","-0.26%"
"Jul 24, 2019","621.40","624.60","625.00","621.00","8.85K","-0.19%"
"Jul 25, 2019","622.60","624.80","626.20","619.60","19.19K","0.19%"
"Jul 26, 2019","624.60","622.60","625.20","618.80","12.54K","0.32%"
"Jul 29, 2019","624.60","625.20","626.60","624.00","7.69K","0.00%"
"Jul 30, 2019","630.00","627.40","630.20","624.60","23.36K","0.86%"
"Jul 31, 2019","628.80","630.40","635.00","627.20","13.80K","-0.19%"
"Aug 01, 2019","626.60","626.80","628.40","620.60","25.38K","-0.35%"
"Aug 02, 2019","653.80","636.20","656.40","629.60","56.41K","4.34%"
"Aug 05, 2019","661.00","654.20","678.00","654.20","60.19K","1.10%"
"Aug 06, 2019","668.20","661.80","670.00","652.40","30.38K","1.09%"
"Aug 07, 2019","685.00","669.00","687.60","666.20","58.74K","2.51%"
"Aug 08, 2019","675.60","675.00","684.60","670.20","32.32K","-1.37%"
"Aug 09, 2019","682.40","675.60","683.00","671.20","53.78K","1.01%"
"Aug 12, 2019","683.60","680.80","685.80","671.80","45.49K","0.18%"
"Aug 13, 2019","677.20","697.20","698.00","665.40","106.81K","-0.94%"
"Aug 14, 2019","693.60","675.00","696.00","669.00","69.20K","2.42%"
"Aug 15, 2019","696.60","681.40","703.00","681.20","66.78K","0.43%"
"Aug 16, 2019","695.80","696.00","698.40","688.00","44.43K","-0.11%"
"Aug 19, 2019","693.80","693.80","696.80","687.00","24.43K","-0.29%"
"Aug 20, 2019","694.60","699.00","699.00","691.00","40.49K","0.12%"
"Aug 21, 2019","685.00","694.60","695.00","683.60","32.39K","-1.38%"
"Aug 22, 2019","681.80","685.00","687.60","678.00","28.35K","-0.47%"
"Aug 23, 2019","697.80","684.80","698.00","678.40","47.90K","2.35%"
"Aug 26, 2019","699.80","703.40","713.60","695.20","99.98K","0.29%"
"Aug 27, 2019","710.60","704.40","710.80","700.00","26.05K","1.54%"
"Aug 28, 2019","708.20","712.00","715.40","706.40","115.48K","-0.34%"
"Aug 29, 2019","708.40","715.00","718.00","707.00","34.57K","0.03%"
"Aug 30, 2019","705.20","714.80","714.80","700.40","39.12K","-0.45%"
"Sep 02, 2019","704.60","714.60","714.60","698.00","28.82K","-0.09%"
"Sep 03, 2019","718.00","704.20","718.00","704.00","118.96K","1.90%"
"Sep 04, 2019","708.60","711.80","713.00","705.20","44.57K","-1.31%"
"Sep 05, 2019","693.20","701.20","708.80","687.20","60.77K","-2.17%"
"Sep 06, 2019","691.80","686.00","697.20","685.20","48.88K","-0.20%"
"Sep 09, 2019","680.00","690.00","692.00","679.20","32.74K","-1.71%"
"Sep 10, 2019","676.60","678.80","680.20","671.80","48.21K","-0.50%"
"Sep 11, 2019","676.00","673.00","679.80","672.00","30.05K","-0.09%"
"Sep 12, 2019","674.80","676.20","685.80","674.20","50.43K","-0.18%"
"Sep 13, 2019","663.80","681.00","681.00","663.80","50.10K","-1.63%"
"Sep 16, 2019","665.60","664.00","669.00","662.80","46.92K","0.27%"
"Sep 17, 2019","670.40","667.00","672.00","662.00","53.11K","0.72%"
"Sep 18, 2019","671.20","670.40","673.80","667.00","131.13K","0.12%"
"Sep 19, 2019","662.60","669.00","669.00","660.80","34.96K","-1.28%"
"Sep 20, 2019","664.00","665.20","666.80","662.00","23.91K","0.21%"
"Sep 23, 2019","674.20","671.20","676.20","665.80","117.90K","1.54%"
"Sep 24, 2019","674.40","674.00","675.60","667.60","146.27K","0.03%"
"Sep 25, 2019","672.60","674.80","685.00","672.60","127.06K","-0.27%"
"Sep 26, 2019","671.20","673.60","673.60","666.60","27.66K","-0.21%"
"Sep 27, 2019","668.00","666.80","670.00","662.80","40.48K","-0.48%"
"Sep 30, 2019","660.40","668.00","669.00","657.60","39.25K","-1.14%"
"Oct 01, 2019","670.60","658.80","671.20","655.00","37.47K","1.54%"
"Oct 02, 2019","677.60","669.80","678.60","663.40","64.95K","1.04%"
"Oct 03, 2019","680.20","676.60","685.00","672.80","47.82K","0.38%"
"Oct 04, 2019","673.80","681.00","683.00","669.00","40.83K","-0.94%"
"Oct 07, 2019","672.20","677.00","680.00","671.00","28.40K","-0.24%"
"Oct 08, 2019","679.40","676.40","680.60","668.20","23.39K","1.07%"
"Oct 09, 2019","676.40","680.40","680.80","673.20","21.17K","-0.44%"
"Oct 10, 2019","666.20","677.60","677.60","665.80","24.67K","-1.51%"
"Oct 11, 2019","656.20","674.80","674.80","652.60","55.67K","-1.50%"
"Oct 14, 2019","663.00","659.80","665.60","657.00","30.82K","1.04%"
"Oct 15, 2019","658.80","664.80","667.00","656.00","40.01K","-0.63%"
"Oct 16, 2019","660.20","662.00","665.00","655.20","26.44K","0.21%"
"Oct 17, 2019","662.80","663.80","663.80","656.60","19.32K","0.39%"
"Oct 18, 2019","660.40","662.00","662.80","659.00","13.42K","-0.36%"
"Oct 21, 2019","655.40","662.00","663.00","654.00","37.68K","-0.76%"
"Oct 22, 2019","653.40","657.20","657.40","653.20","32.33K","-0.31%"
"Oct 23, 2019","660.00","660.00","662.20","655.00","22.32K","1.01%"
"Oct 24, 2019","664.20","662.60","665.20","656.00","22.92K","0.64%"
"Oct 25, 2019","664.40","665.20","668.60","662.60","25.46K","0.03%"
"Oct 28, 2019","661.80","665.00","669.20","656.40","28.05K","-0.39%"
"Oct 29, 2019","657.00","662.80","662.80","655.80","31.68K","-0.73%"
"Oct 30, 2019","661.80","657.00","662.00","656.40","30.17K","0.73%"
"Oct 31, 2019","668.20","660.00","670.80","657.80","31.50K","0.97%"
"Nov 01, 2019","662.80","667.00","669.20","661.40","49.91K","-0.81%"
"Nov 05, 2019","654.20","660.00","662.00","652.40","90.12K","-1.30%"
"Nov 06, 2019","657.40","655.40","659.00","650.20","44.77K","0.49%"
"Nov 07, 2019","650.40","654.40","660.00","648.00","52.88K","-1.06%"
"Nov 08, 2019","646.80","649.80","654.60","642.40","71.84K","-0.55%"
"Nov 11, 2019","642.00","647.40","650.00","640.80","48.21K","-0.74%"
"Nov 12, 2019","641.20","642.00","644.60","639.60","54.16K","-0.12%"
"Nov 13, 2019","649.40","645.80","652.20","643.80","66.98K","1.28%"
"Nov 14, 2019","649.00","651.80","651.80","647.00","46.31K","-0.06%"
"Nov 15, 2019","646.80","643.80","647.60","643.80","34.56K","-0.34%"
"Nov 18, 2019","647.80","647.20","648.80","641.60","37.49K","0.15%"
"Nov 19, 2019","647.80","648.60","649.60","644.80","18.31K","0.00%"
"Nov 20, 2019","648.20","647.80","653.80","646.40","41.23K","0.06%"
"Nov 21, 2019","646.20","654.00","654.00","644.40","23.75K","-0.31%"
"Nov 22, 2019","644.40","647.00","652.00","643.60","31.47K","-0.28%"
"Nov 25, 2019","644.40","645.00","645.00","641.00","32.32K","0.00%"
"Nov 26, 2019","645.00","644.80","646.20","641.60","22.13K","0.09%"
"Nov 27, 2019","644.00","646.20","646.20","642.00","24.57K","-0.16%"
"Nov 28, 2019","644.00","643.00","646.20","642.00","31.34K","0.00%"
"Nov 29, 2019","649.00","645.40","649.00","644.00","38.56K","0.78%"
"Dec 02, 2019","648.00","648.80","649.80","645.60","48.99K","-0.15%"
"Dec 03, 2019","655.20","648.00","656.60","646.20","77.75K","1.11%"
"Dec 04, 2019","649.60","658.00","658.00","649.40","67.79K","-0.85%"
"Dec 05, 2019","651.60","650.00","651.60","648.40","32.35K","0.31%"
"Dec 06, 2019","645.60","651.40","651.40","641.40","48.05K","-0.92%"
"Dec 09, 2019","642.40","644.60","644.60","641.80","21.42K","-0.50%"
"Dec 10, 2019","642.20","647.40","647.40","639.80","48.22K","-0.03%"
"Dec 11, 2019","645.60","642.20","646.00","640.40","26.79K","0.53%"
"Dec 12, 2019","636.00","646.00","649.20","634.20","93.23K","-1.49%"
"Dec 13, 2019","638.20","636.00","641.80","631.00","78.30K","0.35%"
"Dec 16, 2019","636.20","638.80","641.00","635.80","42.97K","-0.31%"
"Dec 17, 2019","636.20","637.20","642.80","635.40","31.88K","0.00%"
"Dec 18, 2019","637.40","636.40","639.00","634.80","27.98K","0.19%"
"Dec 19, 2019","635.20","637.40","638.00","631.00","31.81K","-0.35%"
"Dec 20, 2019","635.20","635.20","637.80","632.00","61.07K","0.00%"
"Dec 23, 2019","637.20","636.60","645.00","635.80","40.39K","0.31%"
"Dec 24, 2019","639.80","638.00","645.00","636.80","79.59K","0.41%"
"Dec 25, 2019","639.80","640.00","640.00","636.40","74.41K","0.00%"
"Dec 26, 2019","648.40","635.80","649.00","635.80","91.17K","1.34%"
"Dec 27, 2019","647.80","647.80","648.20","643.00","77.96K","-0.09%"
"Dec 30, 2019","647.20","648.20","663.80","643.60","132.79K","-0.09%"
"Jan 03, 2020","661.40","655.80","663.00","652.00","89.58K","2.19%"
"Jan 06, 2020","666.20","667.20","676.40","665.60","109.43K","0.73%"
"Jan 08, 2020","668.20","679.00","681.20","666.40","150.37K","0.30%"
"Jan 09, 2020","654.80","659.80","660.00","650.00","93.29K","-2.01%"
"Jan 10, 2020","653.20","655.80","656.80","651.80","54.82K","-0.24%"
"Jan 13, 2020","655.60","653.40","656.40","649.20","78.35K","0.37%"
"Jan 14, 2020","653.00","653.80","654.40","649.40","67.76K","-0.40%"
"Jan 15, 2020","656.20","657.40","659.40","654.00","83.66K","0.49%"
"Jan 16, 2020","658.60","659.80","662.40","656.20","72.06K","0.37%"
"Jan 17, 2020","659.00","662.40","662.40","657.20","72.79K","0.06%"
"Jan 20, 2020","662.60","659.00","662.80","659.00","63.91K","0.55%"
"Jan 21, 2020","663.00","666.00","667.20","659.20","94.85K","0.06%"
"Jan 22, 2020","663.00","663.00","666.40","658.20","51.78K","0.00%"
"Jan 23, 2020","667.80","664.00","670.00","660.20","82.20K","0.72%"
"Jan 24, 2020","669.80","669.40","671.00","661.80","134.34K","0.30%"
"Jan 27, 2020","688.40","674.80","688.80","672.20","362.49K","2.78%"
"Jan 28, 2020","679.80","689.20","689.80","676.60","167.89K","-1.25%"
"Jan 29, 2020","678.00","676.20","680.60","671.40","93.80K","-0.26%"
"Jan 30, 2020","688.20","681.00","688.80","681.00","216.40K","1.50%"
"Jan 31, 2020","696.80","684.80","697.00","681.60","138.69K","1.25%"
"Feb 03, 2020","689.20","699.60","699.60","643.20","423.01K","-1.09%"
"Feb 04, 2020","682.60","687.60","690.00","681.20","365.95K","-0.96%"
"Feb 05, 2020","673.00","681.80","687.80","669.00","283.01K","-1.41%"
"Feb 06, 2020","678.00","673.00","678.20","670.40","136.21K","0.74%"
"Feb 07, 2020","690.20","678.00","694.80","676.00","229.86K","1.80%"
"Feb 10, 2020","694.00","691.00","696.00","687.20","103.18K","0.55%"
"Feb 11, 2020","682.40","688.60","692.20","681.20","67.49K","-1.67%"
"Feb 12, 2020","680.60","681.80","682.40","675.80","77.41K","-0.26%"
"Feb 13, 2020","688.40","686.40","691.60","684.80","101.35K","1.15%"
"Feb 14, 2020","690.40","685.60","691.00","685.00","59.68K","0.29%"
"Feb 17, 2020","689.60","692.80","692.80","682.60","45.14K","-0.12%"
"Feb 18, 2020","701.60","691.00","703.60","689.80","297.59K","1.74%"
"Feb 19, 2020","702.80","702.00","706.00","701.00","138.60K","0.17%"
"Feb 20, 2020","713.60","702.80","714.80","699.60","141.41K","1.54%"
"Feb 21, 2020","726.40","718.20","731.20","718.20","210.24K","1.79%"
"Feb 25, 2020","744.40","729.40","746.00","728.40","450.69K","2.48%"
"Feb 26, 2020","730.60","747.20","748.00","727.40","460.25K","-1.85%"
"Feb 27, 2020","755.20","742.80","757.40","739.00","429.76K","3.37%"
"Feb 28, 2020","734.00","755.00","762.00","726.60","578.63K","-2.81%"
"Mar 02, 2020","733.20","733.20","742.20","726.20","426.51K","-0.11%"
"Mar 03, 2020","740.20","730.00","741.60","726.20","231.56K","0.95%"
"Mar 04, 2020","745.00","741.60","750.60","740.00","147.09K","0.65%"
"Mar 05, 2020","764.00","745.00","764.00","744.40","261.80K","2.55%"
"Mar 06, 2020","775.00","772.00","795.00","766.80","632.80K","1.44%"
"Mar 10, 2020","817.20","800.60","832.40","779.40","394.93K","5.45%"
"Mar 11, 2020","820.40","818.00","824.00","803.80","229.78K","0.39%"
"Mar 12, 2020","793.00","825.00","856.00","790.40","495.03K","-3.34%"
"Mar 13, 2020","784.00","800.20","829.00","766.40","347.66K","-1.13%"
"Mar 16, 2020","764.60","790.00","802.00","741.60","522.48K","-2.47%"
"Mar 17, 2020","780.80","764.00","794.80","722.80","239.34K","2.12%"
"Mar 18, 2020","811.00","782.20","819.00","763.60","291.97K","3.87%"
"Mar 19, 2020","804.00","827.20","830.00","790.00","141.73K","-0.86%"
"Mar 20, 2020","816.20","805.40","822.80","790.20","186.92K","1.52%"
"Mar 23, 2020","848.60","809.00","852.40","809.00","187.53K","3.97%"
"Mar 24, 2020","868.00","855.80","869.00","844.00","324.96K","2.29%"
"Mar 25, 2020","865.60","872.00","881.00","846.40","365.39K","-0.28%"
"Mar 26, 2020","868.00","864.00","879.60","860.40","293.48K","0.28%"
"Mar 27, 2020","887.00","874.00","887.40","863.00","185.08K","2.19%"
"Mar 30, 2020","896.40","890.40","904.60","885.00","249.22K","1.06%"
"Mar 31, 2020","864.80","894.80","894.80","855.00","236.30K","-3.53%"
"Apr 01, 2020","860.00","864.40","877.80","854.60","150.20K","-0.56%"
"Apr 02, 2020","861.60","858.40","880.60","847.80","223.82K","0.19%"
"Apr 03, 2020","859.40","860.00","864.00","851.00","123.55K","-0.26%"
"Apr 06, 2020","862.00","859.60","863.00","854.20","199.97K","0.30%"
"Apr 07, 2020","859.60","862.00","868.80","852.00","210.44K","-0.28%"
"Apr 08, 2020","855.60","860.00","861.60","852.00","47.28K","-0.47%"
"Apr 09, 2020","849.60","852.60","854.00","832.00","190.90K","-0.70%"
"Apr 10, 2020","861.00","852.80","868.00","849.40","93.98K","1.34%"
"Apr 13, 2020","869.60","864.80","871.00","856.00","112.87K","1.00%"
"Apr 14, 2020","870.00","869.40","875.00","858.80","134.12K","0.05%"
"Apr 15, 2020","883.60","873.40","897.60","861.00","271.74K","1.56%"
"Apr 16, 2020","880.00","884.00","889.80","871.40","167.20K","-0.41%"
"Apr 17, 2020","861.00","869.80","869.80","853.20","141.93K","-2.16%"
"Apr 20, 2020","865.00","865.00","869.00","853.00","161.72K","0.46%"
"Apr 21, 2020","892.40","871.00","892.40","871.00","348.98K","3.17%"
"Apr 22, 2020","892.00","899.20","899.80","888.00","213.53K","-0.04%"
"Apr 23, 2020","885.40","890.00","892.80","880.00","97.96K","-0.74%"
"Apr 24, 2020","878.00","889.00","890.00","877.00","89.92K","-0.84%"
"Apr 27, 2020","878.40","878.00","882.00","871.00","81.45K","0.05%"
"Apr 28, 2020","869.40","878.40","878.40","862.00","133.33K","-1.02%"
"Apr 29, 2020","857.00","868.80","868.80","854.00","86.54K","-1.43%"
"Apr 30, 2020","864.00","856.40","868.00","855.20","121.17K","0.82%"
"May 04, 2020","877.00","872.40","888.00","872.40","92.41K","1.50%"
"May 05, 2020","861.00","872.00","872.00","855.00","93.61K","-1.82%"
"May 06, 2020","862.00","861.00","875.20","858.80","90.06K","0.12%"
"May 07, 2020","863.20","862.80","864.00","856.40","329.72K","0.14%"
"May 08, 2020","862.80","869.80","874.00","861.00","152.97K","-0.05%"
"May 12, 2020","859.60","861.00","863.60","852.60","159.66K","-0.37%"
"May 13, 2020","869.80","860.00","870.60","857.40","312.35K","1.19%"
"May 14, 2020","878.40","868.60","883.60","868.00","130.86K","0.99%"
"May 15, 2020","881.80","877.60","882.00","870.00","78.02K","0.39%"
"May 18, 2020","861.80","881.20","883.00","859.00","176.49K","-2.27%"
"May 19, 2020","867.20","861.20","869.80","856.20","110.93K","0.63%"
"May 20, 2020","859.40","868.00","871.00","854.00","125.04K","-0.90%"
"May 21, 2020","840.80","854.80","854.80","838.00","176.49K","-2.16%"
"May 22, 2020","852.20","849.00","869.80","844.20","122.78K","1.36%"
"May 25, 2020","850.00","852.20","852.20","842.00","44.15K","-0.26%"
"May 26, 2020","834.40","850.80","851.00","830.20","128.90K","-1.84%"
"May 27, 2020","833.00","833.20","835.60","827.40","111.98K","-0.17%"
"May 28, 2020","834.00","840.00","843.00","832.00","87.93K","0.12%"
"May 29, 2020","840.00","834.00","841.00","829.40","78.24K","0.72%"
"Jun 01, 2020","829.60","839.00","839.80","826.00","103.09K","-1.24%"
"Jun 02, 2020","821.00","825.20","825.20","818.00","75.20K","-1.04%"
"Jun 03, 2020","795.80","816.80","816.80","794.20","183.58K","-3.07%"
"Jun 04, 2020","815.80","796.40","819.40","796.40","205.43K","2.51%"
"Jun 05, 2020","788.20","810.40","810.40","784.00","147.78K","-3.38%"
"Jun 08, 2020","791.20","783.60","800.00","783.40","129.28K","0.38%"
"Jun 09, 2020","808.00","794.20","811.40","790.80","107.35K","2.12%"
"Jun 10, 2020","808.80","807.60","816.80","805.20","136.52K","0.10%"
"Jun 11, 2020","829.60","824.80","833.20","816.20","131.49K","2.57%"
"Jun 15, 2020","824.00","830.80","838.00","818.40","105.72K","-0.68%"
"Jun 16, 2020","822.00","822.20","827.60","814.20","79.76K","-0.24%"
"Jun 17, 2020","823.40","822.00","824.20","816.40","31.71K","0.17%"
"Jun 18, 2020","821.60","825.80","825.80","818.00","30.29K","-0.22%"
"Jun 19, 2020","829.20","823.60","829.60","820.60","55.12K","0.93%"
"Jun 22, 2020","835.00","830.20","837.40","829.20","131.92K","0.70%"
"Jun 23, 2020","832.20","831.80","837.80","822.00","55.59K","-0.34%"
"Jun 25, 2020","836.00","838.20","843.20","833.00","93.17K","0.46%"
"Jun 26, 2020","844.60","833.00","844.80","829.40","73.33K","1.03%"
"Jun 29, 2020","852.80","845.80","854.00","844.60","105.73K","0.97%"
"Jun 30, 2020","869.20","853.80","870.20","845.40","102.03K","1.92%"
"Jul 02, 2020","858.40","856.00","864.60","840.20","112.50K","-1.24%"
"Jul 03, 2020","868.00","857.80","869.00","851.00","116.07K","1.12%"
"Jul 06, 2020","872.40","867.00","877.00","856.20","121.69K","0.51%"
"Jul 07, 2020","875.60","877.00","879.80","863.80","78.04K","0.37%"
"Jul 08, 2020","879.00","873.00","883.60","862.00","151.49K","0.39%"
"Jul 09, 2020","876.00","879.20","887.40","871.00","96.78K","-0.34%"
"Jul 10, 2020","873.80","876.00","881.20","872.00","72.42K","-0.25%"
"Jul 13, 2020","873.00","874.00","880.00","872.20","73.25K","-0.09%"
"Jul 14, 2020","879.00","870.40","880.00","870.20","91.81K","0.69%"
"Jul 15, 2020","878.00","877.80","879.00","875.00","37.38K","-0.11%"
"Jul 16, 2020","880.60","878.60","880.80","877.60","55.70K","0.30%"
"Jul 17, 2020","889.40","882.60","890.60","879.20","79.33K","1.00%"
"Jul 20, 2020","887.80","888.80","891.00","885.40","78.23K","-0.18%"
"Jul 21, 2020","887.00","889.60","890.60","881.40","80.85K","-0.09%"
"Jul 22, 2020","904.40","894.00","904.40","892.80","171.14K","1.96%"
"Jul 23, 2020","922.20","907.00","923.40","899.80","139.63K","1.97%"
"Jul 24, 2020","929.60","924.80","934.00","920.20","163.72K","0.80%"
"Jul 27, 2020","949.80","940.40","951.80","935.60","229.05K","2.17%"
"Jul 28, 2020","965.00","954.20","967.60","937.00","306.64K","1.60%"
"Jul 29, 2020","970.40","968.80","992.00","961.40","180.60K","0.56%"
"Jul 30, 2020","981.20","970.60","986.00","967.60","211.41K","1.11%"
"Jul 31, 2020","1,004.20","990.00","1,005.00","983.20","232.93K","2.34%"
"Aug 03, 2020","986.00","1,014.80","1,016.60","985.00","252.28K","-1.81%"
"Aug 04, 2020","1,001.60","986.00","1,004.00","980.20","136.48K","1.58%"
"Aug 05, 2020","1,015.60","1,018.40","1,022.60","1,012.20","168.85K","1.40%"
"Aug 06, 2020","1,032.20","1,019.80","1,039.00","1,018.00","235.58K","1.63%"
"Aug 07, 2020","1,022.80","1,034.20","1,040.00","1,020.80","238.53K","-0.91%"
"Aug 10, 2020","1,022.80","1,022.80","1,028.00","1,008.00","171.52K","0.00%"
"Aug 11, 2020","964.40","1,002.40","1,009.60","952.00","450.05K","-5.71%"
"Aug 12, 2020","976.00","958.00","980.00","946.40","309.28K","1.20%"
"Aug 13, 2020","972.20","973.00","974.00","964.80","179.96K","-0.39%"
"Aug 14, 2020","968.00","973.00","978.60","965.40","99.05K","-0.43%"
"Aug 17, 2020","993.80","972.60","995.80","970.00","579.52K","2.67%"
"Aug 18, 2020","1,000.00","1,002.00","1,006.00","985.80","308.96K","0.62%"
"Aug 19, 2020","981.80","994.20","998.80","976.00","131.79K","-1.82%"
"Aug 20, 2020","986.80","975.00","989.00","970.00","148.43K","0.51%"
"Aug 21, 2020","985.80","980.00","990.00","973.20","154.20K","-0.10%"
"Aug 24, 2020","981.60","985.00","994.00","978.40","147.62K","-0.43%"
"Aug 25, 2020","983.60","982.00","986.40","979.00","78.64K","0.20%"
"Aug 26, 2020","1,000.00","981.00","1,000.40","981.00","149.25K","1.67%"
"Aug 27, 2020","984.40","1,000.00","1,007.40","978.20","160.19K","-1.56%"
"Aug 28, 2020","997.00","992.00","998.40","985.00","86.16K","1.28%"
"Aug 31, 2020","997.60","995.60","1,000.00","980.20","79.80K","0.06%"
"Sep 01, 2020","991.20","998.00","1,000.40","984.80","106.66K","-0.64%"
"Sep 02, 2020","1,000.00","990.00","1,002.40","986.80","101.32K","0.89%"
"Sep 03, 2020","988.00","995.00","998.80","988.00","94.70K","-1.20%"
"Sep 04, 2020","988.40","989.40","999.00","983.00","107.51K","0.04%"
"Sep 07, 2020","996.60","990.00","1,001.00","990.00","86.15K","0.83%"
"Sep 08, 2020","1,001.80","997.00","1,003.00","994.80","138.70K","0.52%"
"Sep 09, 2020","997.00","1,001.80","1,003.40","992.00","82.62K","-0.48%"
"Sep 10, 2020","1,000.80","1,000.00","1,002.00","994.20","40.40K","0.38%"
"Sep 11, 2020","995.00","998.00","998.00","988.00","95.92K","-0.58%"
"Sep 14, 2020","1,001.60","993.00","1,002.80","990.20","117.31K","0.66%"
"Sep 15, 2020","998.00","1,001.60","1,009.80","996.20","97.79K","-0.36%"
"Sep 16, 2020","1,002.60","999.00","1,005.40","998.00","54.69K","0.46%"
"Sep 17, 2020","998.00","999.00","1,000.00","992.00","81.32K","-0.46%"
"Sep 18, 2020","1,003.20","998.00","1,004.00","996.60","87.31K","0.52%"
"Sep 21, 2020","987.00","1,003.20","1,011.40","981.00","225.74K","-1.61%"
"Sep 22, 2020","986.60","987.00","991.60","951.20","116.44K","-0.04%"
"Sep 23, 2020","974.20","980.00","986.60","972.20","144.77K","-1.26%"
"Sep 24, 2020","978.20","976.00","979.80","967.20","84.21K","0.41%"
"Sep 25, 2020","990.40","981.00","992.80","973.80","95.49K","1.25%"
"Sep 28, 2020","1,004.40","990.20","1,005.00","984.00","202.72K","1.41%"
"Sep 29, 2020","1,018.20","1,010.00","1,020.80","1,004.80","185.04K","1.37%"
"Sep 30, 2020","1,003.00","1,026.00","1,026.00","997.00","87.38K","-1.49%"
"Oct 01, 2020","1,005.80","998.00","1,006.20","995.00","85.78K","0.28%"
"Oct 02, 2020","1,012.00","1,015.00","1,019.80","1,008.00","126.19K","0.62%"
"Oct 05, 2020","1,019.00","1,010.00","1,019.80","997.00","106.10K","0.69%"
"Oct 06, 2020","1,009.20","1,019.60","1,019.60","1,007.00","99.28K","-0.96%"
"Oct 07, 2020","1,005.00","1,010.00","1,020.00","1,000.60","121.91K","-0.42%"
"Oct 08, 2020","997.80","1,007.60","1,007.60","995.60","74.21K","-0.72%"
"Oct 09, 2020","1,006.40","998.20","1,009.00","998.20","46.87K","0.86%"
"Oct 12, 2020","1,006.40","1,008.00","1,012.80","999.40","108.43K","0.00%"
"Oct 13, 2020","994.00","1,006.40","1,008.40","990.80","138.12K","-1.23%"
"Oct 14, 2020","1,004.40","995.40","1,007.00","993.80","43.23K","1.05%"
"Oct 15, 2020","1,010.20","1,005.60","1,012.80","1,001.20","132.83K","0.58%"
"Oct 16, 2020","1,006.00","1,013.20","1,015.00","1,004.40","64.73K","-0.42%"
"Oct 19, 2020","1,005.20","1,009.40","1,012.60","1,004.00","126.49K","-0.08%"
"Oct 20, 2020","1,005.60","1,005.20","1,009.80","1,001.20","34.68K","0.04%"
"Oct 21, 2020","1,005.20","1,007.20","1,009.00","1,003.00","36.92K","-0.04%"
"Oct 22, 2020","992.60","1,002.60","1,007.20","988.00","84.24K","-1.25%"
"Oct 23, 2020","983.60","992.60","996.40","982.80","60.03K","-0.91%"
"Oct 26, 2020","986.20","987.00","992.00","984.40","73.81K","0.26%"
"Oct 27, 2020","998.80","986.60","1,001.40","986.60","54.85K","1.28%"
"Oct 28, 2020","1,001.20","1,000.00","1,010.40","997.20","174.08K","0.24%"
"Oct 29, 2020","1,005.00","1,004.00","1,013.60","1,001.60","261.10K","0.38%"
"Oct 30, 2020","1,010.60","1,005.00","1,012.80","1,002.40","159.03K","0.56%"
"Nov 02, 2020","1,033.60","1,015.00","1,033.60","1,014.80","122.17K","2.28%"
"Nov 03, 2020","1,026.80","1,033.40","1,033.40","1,019.80","97.01K","-0.66%"
"Nov 05, 2020","1,018.00","1,018.00","1,025.00","1,010.60","165.67K","-0.86%"
"Nov 06, 2020","1,026.20","1,019.80","1,035.60","1,015.00","258.95K","0.81%"
"Nov 09, 2020","968.00","1,033.00","1,034.40","958.80","666.94K","-5.67%"
"Nov 10, 2020","977.00","970.80","989.80","970.80","231.95K","0.93%"
"Nov 11, 2020","977.00","984.20","984.20","968.20","137.21K","0.00%"
"Nov 12, 2020","986.20","980.00","991.00","973.60","109.59K","0.94%"
"Nov 13, 2020","991.00","985.40","999.40","984.20","90.78K","0.49%"
"Nov 16, 2020","977.40","992.60","993.40","969.20","187.50K","-1.37%"
"Nov 17, 2020","974.20","982.00","984.60","972.00","55.34K","-0.33%"
"Nov 18, 2020","966.60","977.80","977.80","960.00","127.82K","-0.78%"
"Nov 19, 2020","964.40","968.80","969.20","960.60","84.05K","-0.23%"
"Nov 20, 2020","968.60","967.20","972.60","962.00","59.32K","0.44%"