﻿"Date","Price","Open","High","Low","Vol.","Change %"
"Sep 02, 2019","674.90","677.50","677.50","672.90","9.82K","0.09%"
"Sep 03, 2019","677.90","676.00","678.30","676.00","4.69K","0.44%"
"Sep 04, 2019","668.70","675.00","675.00","668.40","9.79K","-1.36%"
"Sep 05, 2019","668.00","669.00","670.40","666.60","3.41K","-0.10%"
"Sep 06, 2019","664.20","667.30","672.50","663.40","4.76K","-0.57%"
"Sep 09, 2019","662.20","664.20","664.20","661.00","7.90K","-0.30%"
"Sep 10, 2019","661.60","662.50","667.50","660.70","3.49K","-0.09%"
"Sep 11, 2019","661.80","660.60","665.00","660.10","3.47K","0.03%"
"Sep 12, 2019","656.00","661.10","666.00","655.10","14.39K","-0.88%"
"Sep 13, 2019","649.90","655.20","655.20","649.00","9.78K","-0.93%"
"Sep 16, 2019","647.40","649.00","650.00","644.30","11.41K","-0.38%"
"Sep 17, 2019","651.20","650.00","652.50","648.00","10.10K","0.59%"
"Sep 18, 2019","649.30","652.50","652.50","648.60","6.53K","-0.29%"
"Sep 19, 2019","646.70","650.20","654.30","645.30","20.21K","-0.40%"
"Sep 20, 2019","646.80","650.00","651.30","644.80","3.12K","0.02%"
"Sep 23, 2019","646.50","645.20","651.00","645.10","4.98K","-0.05%"
"Sep 24, 2019","646.10","645.20","646.70","644.10","7.85K","-0.06%"
"Sep 25, 2019","650.00","647.50","652.80","642.50","11.37K","0.60%"
"Sep 26, 2019","650.60","654.30","654.30","648.40","10.82K","0.09%"
"Sep 27, 2019","653.40","650.00","654.00","650.00","1.30K","0.43%"
"Sep 30, 2019","657.50","651.40","659.50","651.40","6.55K","0.63%"
"Oct 01, 2019","661.80","659.00","662.00","652.50","15.54K","0.65%"
"Oct 02, 2019","660.00","662.50","663.80","657.60","13.51K","-0.27%"
"Oct 03, 2019","660.50","662.50","663.90","658.80","13.95K","0.08%"
"Oct 04, 2019","654.40","658.50","659.40","653.90","3.55K","-0.92%"
"Oct 07, 2019","656.60","657.50","660.30","622.20","5.74K","0.34%"
"Oct 08, 2019","661.60","655.90","661.80","655.90","10.46K","0.76%"
"Oct 09, 2019","656.80","657.90","662.00","655.10","12.66K","-0.73%"
"Oct 10, 2019","653.50","655.80","657.80","652.90","6.47K","-0.50%"
"Oct 11, 2019","649.60","652.50","652.50","648.60","5.21K","-0.60%"
"Oct 14, 2019","651.80","652.50","654.80","645.70","5.95K","0.34%"
"Oct 15, 2019","651.40","654.20","656.20","650.50","4.39K","-0.06%"
"Oct 16, 2019","649.70","655.00","655.00","649.40","8.33K","-0.26%"
"Oct 17, 2019","648.80","652.50","652.50","647.30","3.81K","-0.14%"
"Oct 18, 2019","648.90","650.00","652.40","647.90","1.94K","0.02%"
"Oct 21, 2019","646.30","652.30","659.50","645.20","10.08K","-0.40%"
"Oct 22, 2019","644.50","645.50","649.90","644.50","27.99K","-0.28%"
"Oct 23, 2019","647.20","647.50","677.20","645.80","5.82K","0.42%"
"Oct 24, 2019","650.00","647.30","650.00","645.20","33.50K","0.43%"
"Oct 25, 2019","646.10","652.50","652.50","645.70","6.13K","-0.60%"
"Oct 28, 2019","646.40","648.50","649.00","644.60","16.86K","0.05%"
"Oct 29, 2019","647.30","648.80","649.20","646.30","12.60K","0.14%"
"Oct 30, 2019","649.00","648.00","650.20","646.10","5.60K","0.26%"
"Oct 31, 2019","649.00","647.60","650.90","646.20","7.04K","0.00%"
"Nov 01, 2019","643.40","648.10","649.90","643.20","7.20K","-0.86%"
"Nov 05, 2019","645.70","642.90","647.50","641.00","7.96K","0.36%"
"Nov 06, 2019","648.20","642.50","649.60","642.50","12.51K","0.39%"
"Nov 07, 2019","647.10","650.00","650.00","645.90","13.56K","-0.17%"
"Nov 08, 2019","648.00","648.00","649.80","645.10","12.03K","0.14%"
"Nov 11, 2019","648.30","647.50","649.40","647.50","26.97K","0.05%"
"Nov 12, 2019","651.20","645.10","651.30","645.00","15.29K","0.45%"
"Nov 13, 2019","652.80","651.80","654.10","651.00","8.00K","0.25%"
"Nov 14, 2019","650.30","654.80","654.90","649.20","7.90K","-0.38%"
"Nov 15, 2019","647.50","649.30","649.50","647.40","5.18K","-0.43%"
"Nov 18, 2019","648.30","650.00","650.00","647.00","10.47K","0.12%"
"Nov 19, 2019","648.20","648.40","648.70","646.10","11.26K","-0.02%"
"Nov 20, 2019","648.70","650.00","652.00","648.30","14.94K","0.08%"
"Nov 21, 2019","647.00","648.20","649.80","646.70","21.06K","-0.26%"
"Nov 22, 2019","647.90","647.10","649.00","646.10","10.90K","0.14%"
"Nov 25, 2019","649.80","646.80","651.00","645.50","19.67K","0.29%"
"Nov 26, 2019","650.10","648.00","651.00","648.00","16.23K","0.05%"
"Nov 27, 2019","650.60","649.30","652.00","648.70","8.14K","0.08%"
"Nov 28, 2019","651.00","650.10","652.10","650.00","8.11K","0.06%"
"Nov 29, 2019","653.50","651.50","653.50","650.40","26.20K","0.38%"
"Dec 02, 2019","652.30","653.50","656.00","652.30","48.60K","-0.18%"
"Dec 03, 2019","651.60","656.90","656.90","650.60","19.06K","-0.11%"
"Dec 04, 2019","649.30","659.80","659.80","648.50","8.14K","-0.35%"
"Dec 05, 2019","648.90","649.40","650.60","647.70","6.71K","-0.06%"
"Dec 06, 2019","646.90","648.20","649.10","646.30","17.27K","-0.31%"
"Dec 09, 2019","647.00","650.00","654.90","646.50","27.00K","0.02%"
"Dec 10, 2019","645.40","646.30","647.90","645.20","24.50K","-0.25%"
"Dec 11, 2019","646.50","645.20","649.90","645.20","13.04K","0.17%"
"Dec 12, 2019","638.00","633.60","649.00","633.60","28.67K","-1.31%"
"Dec 13, 2019","639.10","644.80","646.00","629.30","31.81K","0.17%"
"Dec 16, 2019","634.60","638.70","638.70","634.10","19.53K","-0.70%"
"Dec 17, 2019","635.30","635.70","639.90","634.70","12.79K","0.11%"
"Dec 18, 2019","636.00","636.00","637.50","634.80","8.57K","0.11%"
"Dec 19, 2019","634.10","637.50","639.30","633.60","10.13K","-0.30%"
"Dec 20, 2019","633.10","637.50","638.70","630.50","13.35K","-0.16%"
"Dec 23, 2019","633.40","633.20","635.00","632.10","92.20K","0.05%"
"Dec 24, 2019","630.30","633.50","636.50","629.00","17.85K","-0.49%"
"Dec 25, 2019","629.10","629.00","629.10","625.50","31.41K","-0.19%"
"Dec 26, 2019","633.10","630.00","633.20","627.70","15.61K","0.64%"
"Dec 27, 2019","631.60","634.50","634.90","628.80","18.76K","-0.24%"
"Dec 30, 2019","629.70","635.50","635.50","627.30","31.18K","-0.30%"
"Jan 03, 2020","630.80","632.50","634.80","629.00","14.83K","0.17%"
"Jan 06, 2020","629.20","630.60","635.30","628.90","19.37K","-0.25%"
"Jan 08, 2020","627.60","630.70","631.20","626.70","18.42K","-0.25%"
"Jan 09, 2020","624.60","628.90","628.90","622.50","12.40K","-0.48%"
"Jan 10, 2020","621.00","626.60","626.70","619.80","10.51K","-0.58%"
"Jan 13, 2020","623.60","619.20","625.00","619.20","24.17K","0.42%"
"Jan 14, 2020","625.70","624.00","626.10","623.60","19.47K","0.34%"
"Jan 15, 2020","626.90","626.20","628.60","624.60","16.92K","0.19%"
"Jan 16, 2020","627.60","624.20","628.30","623.00","23.83K","0.11%"
"Jan 17, 2020","626.00","625.10","630.40","600.00","15.40K","-0.25%"
"Jan 20, 2020","627.60","627.50","627.80","625.00","10.95K","0.26%"
"Jan 21, 2020","630.00","628.90","631.40","627.70","16.53K","0.38%"
"Jan 22, 2020","631.00","631.80","632.00","628.60","22.45K","0.16%"
"Jan 23, 2020","631.40","633.00","633.00","629.20","20.15K","0.06%"
"Jan 24, 2020","631.20","630.00","633.00","628.30","10.55K","-0.03%"
"Jan 27, 2020","641.80","633.00","641.90","633.00","33.14K","1.68%"
"Jan 28, 2020","635.00","642.80","642.90","635.00","18.95K","-1.06%"
"Jan 29, 2020","639.40","637.50","639.90","634.00","7.85K","0.69%"
"Jan 30, 2020","644.80","637.70","645.50","637.70","24.28K","0.84%"
"Jan 31, 2020","649.80","645.00","650.90","641.80","38.00K","0.78%"
"Feb 03, 2020","648.00","648.10","652.80","645.00","42.57K","-0.28%"
"Feb 04, 2020","642.50","648.00","648.00","642.10","28.84K","-0.85%"
"Feb 05, 2020","640.00","642.00","644.50","637.50","27.95K","-0.39%"
"Feb 06, 2020","645.50","642.40","646.00","636.00","11.60K","0.86%"
"Feb 07, 2020","652.40","642.50","653.90","635.20","24.99K","1.07%"
"Feb 10, 2020","653.50","652.50","656.00","648.30","12.01K","0.17%"
"Feb 11, 2020","644.80","652.00","653.00","644.60","13.12K","-1.33%"
"Feb 12, 2020","643.40","638.90","653.10","638.90","25.16K","-0.22%"
"Feb 13, 2020","647.40","641.10","650.00","641.10","11.19K","0.62%"
"Feb 14, 2020","647.70","647.40","648.30","645.60","15.71K","0.05%"
"Feb 17, 2020","647.30","646.00","648.00","644.30","7.48K","-0.06%"
"Feb 18, 2020","650.90","647.30","653.90","647.30","11.31K","0.56%"
"Feb 19, 2020","648.70","650.30","650.30","646.80","8.73K","-0.34%"
"Feb 20, 2020","653.00","650.00","653.00","647.20","11.06K","0.66%"
"Feb 21, 2020","654.60","653.60","658.00","653.50","25.08K","0.25%"
"Feb 25, 2020","666.10","655.70","668.40","655.70","43.75K","1.76%"
"Feb 26, 2020","662.60","667.50","684.00","657.30","68.14K","-0.53%"
"Feb 27, 2020","675.30","662.70","676.50","662.70","32.53K","1.92%"
"Feb 28, 2020","686.60","677.50","688.60","669.40","160.17K","1.67%"
"Mar 02, 2020","681.10","682.50","685.00","666.00","62.37K","-0.80%"
"Mar 03, 2020","667.50","675.60","680.00","667.20","75.74K","-2.00%"
"Mar 04, 2020","673.30","667.10","674.90","667.00","47.34K","0.87%"
"Mar 05, 2020","683.00","677.30","683.00","669.40","46.81K","1.44%"
"Mar 06, 2020","693.90","685.00","697.50","679.10","142.07K","1.60%"
"Mar 10, 2020","733.50","719.00","743.50","709.00","63.59K","5.71%"
"Mar 11, 2020","738.00","725.00","740.00","723.00","31.44K","0.61%"
"Mar 12, 2020","761.00","744.00","793.00","742.10","701.27K","3.12%"
"Mar 13, 2020","752.60","766.00","766.00","730.10","72.20K","-1.10%"
"Mar 16, 2020","753.10","753.00","771.00","748.10","70.98K","0.07%"
"Mar 17, 2020","767.70","753.20","772.40","750.10","106.27K","1.94%"
"Mar 18, 2020","819.00","783.60","824.00","783.00","71.41K","6.68%"
"Mar 19, 2020","814.70","835.00","835.00","785.00","70.85K","-0.53%"
"Mar 20, 2020","810.40","798.50","825.00","780.50","89.54K","-0.53%"
"Mar 23, 2020","815.60","813.40","837.00","808.40","75.91K","0.64%"
"Mar 24, 2020","800.90","810.00","810.00","790.90","77.60K","-1.80%"
"Mar 25, 2020","803.70","804.90","839.00","787.00","99.12K","0.35%"
"Mar 26, 2020","786.30","802.30","809.20","784.80","81.81K","-2.16%"
"Mar 27, 2020","808.00","791.00","809.90","786.00","53.33K","2.76%"
"Mar 30, 2020","815.10","810.00","836.40","806.50","55.01K","0.88%"
"Mar 31, 2020","794.80","814.90","814.90","792.80","55.33K","-2.49%"
"Apr 01, 2020","804.60","805.40","825.00","800.00","24.72K","1.23%"
"Apr 02, 2020","792.40","795.00","809.00","785.00","93.27K","-1.52%"
"Apr 03, 2020","787.30","791.20","799.00","779.00","85.35K","-0.64%"
"Apr 06, 2020","779.40","783.60","787.00","775.10","53.65K","-1.00%"
"Apr 07, 2020","770.00","777.00","798.30","765.10","56.77K","-1.21%"
"Apr 08, 2020","770.50","768.00","778.60","768.00","34.07K","0.06%"
"Apr 09, 2020","752.30","766.90","793.00","740.00","83.33K","-2.36%"
"Apr 10, 2020","753.10","759.10","772.00","747.10","39.25K","0.11%"
"Apr 13, 2020","752.70","760.00","761.90","748.00","19.38K","-0.05%"
"Apr 14, 2020","747.20","766.70","766.70","742.00","40.52K","-0.73%"
"Apr 15, 2020","767.00","745.10","767.00","745.10","96.99K","2.65%"
"Apr 16, 2020","757.80","767.80","772.00","753.00","41.39K","-1.20%"
"Apr 17, 2020","756.00","753.80","759.70","750.30","37.99K","-0.24%"
"Apr 20, 2020","760.00","759.70","767.00","756.80","38.98K","0.53%"
"Apr 21, 2020","790.00","772.00","790.00","769.10","122.38K","3.95%"
"Apr 22, 2020","776.40","792.90","799.90","773.80","116.78K","-1.72%"
"Apr 23, 2020","759.50","772.00","772.10","758.10","38.71K","-2.18%"
"Apr 24, 2020","761.60","761.30","771.60","753.60","51.14K","0.28%"
"Apr 27, 2020","761.80","762.00","762.30","755.00","245.23K","0.03%"
"Apr 28, 2020","755.80","763.30","763.90","751.70","44.21K","-0.79%"
"Apr 29, 2020","747.20","754.60","754.60","746.70","205.56K","-1.14%"
"Apr 30, 2020","753.90","745.90","759.00","736.10","53.66K","0.90%"
"May 04, 2020","767.80","759.70","775.00","756.90","37.67K","1.84%"
"May 05, 2020","753.00","752.50","761.90","752.00","29.27K","-1.93%"
"May 06, 2020","762.30","764.00","766.00","750.00","32.62K","1.24%"
"May 07, 2020","752.60","765.20","768.30","751.70","28.08K","-1.27%"
"May 08, 2020","747.50","756.00","756.00","746.80","23.79K","-0.68%"
"May 12, 2020","747.40","747.50","756.40","744.10","24.85K","-0.01%"
"May 13, 2020","753.40","755.20","756.50","745.40","20.92K","0.80%"
"May 14, 2020","755.00","756.40","759.80","752.20","26.80K","0.21%"
"May 15, 2020","752.50","752.20","754.90","745.70","21.03K","-0.33%"
"May 18, 2020","741.50","751.90","751.90","741.00","62.39K","-1.46%"
"May 19, 2020","740.70","741.00","743.80","737.00","39.17K","-0.11%"
"May 20, 2020","729.20","740.70","743.50","725.80","33.88K","-1.55%"
"May 21, 2020","724.00","729.50","734.00","721.00","32.56K","-0.71%"
"May 22, 2020","732.10","730.80","736.10","724.00","43.53K","1.12%"
"May 25, 2020","731.50","732.10","736.50","729.00","17.12K","-0.08%"
"May 26, 2020","723.50","736.60","736.60","721.30","35.48K","-1.09%"
"May 27, 2020","728.00","723.80","729.30","720.10","27.28K","0.62%"
"May 28, 2020","720.90","724.10","727.90","719.80","33.11K","-0.98%"
"May 29, 2020","721.40","722.00","723.90","719.00","26.76K","0.07%"
"Jun 01, 2020","709.30","715.90","715.90","709.30","38.34K","-1.68%"
"Jun 02, 2020","704.30","708.00","717.00","700.50","64.28K","-0.70%"
"Jun 03, 2020","699.20","704.00","706.00","696.10","37.42K","-0.72%"
"Jun 04, 2020","708.50","704.20","712.00","703.10","38.47K","1.33%"
"Jun 05, 2020","698.80","695.10","707.90","695.10","37.50K","-1.37%"
"Jun 08, 2020","698.20","703.80","703.80","694.30","38.03K","-0.09%"
"Jun 09, 2020","700.00","698.90","706.40","698.00","42.55K","0.26%"
"Jun 10, 2020","701.30","700.00","709.00","698.40","27.43K","0.19%"
"Jun 11, 2020","712.00","705.10","716.50","702.10","39.06K","1.53%"
"Jun 15, 2020","715.70","716.50","730.00","714.80","76.01K","0.52%"
"Jun 16, 2020","712.50","717.40","717.40","705.10","39.32K","-0.45%"
"Jun 17, 2020","712.00","713.60","715.70","708.40","43.77K","-0.07%"
"Jun 18, 2020","711.30","718.60","718.60","706.30","21.47K","-0.10%"
"Jun 19, 2020","710.00","715.70","715.70","706.40","22.49K","-0.18%"
"Jun 22, 2020","707.70","710.70","713.70","706.00","37.14K","-0.32%"
"Jun 23, 2020","700.90","711.40","711.40","699.90","66.69K","-0.96%"
"Jun 25, 2020","706.70","707.20","711.00","706.00","46.64K","0.83%"
"Jun 26, 2020","712.50","705.20","714.70","704.70","38.13K","0.82%"
"Jun 29, 2020","717.80","714.80","719.10","708.10","56.56K","0.74%"
"Jun 30, 2020","727.20","719.00","739.70","712.10","74.17K","1.31%"
"Jul 02, 2020","719.40","726.50","728.40","716.70","76.66K","-1.07%"
"Jul 03, 2020","729.90","722.40","731.40","718.60","57.66K","1.46%"
"Jul 06, 2020","731.10","723.10","735.90","721.00","73.60K","0.16%"
"Jul 07, 2020","728.20","737.80","738.00","727.00","56.80K","-0.40%"
"Jul 08, 2020","727.40","727.20","736.50","725.00","71.65K","-0.11%"
"Jul 09, 2020","725.20","727.00","733.00","719.70","61.01K","-0.30%"
"Jul 10, 2020","723.20","733.20","733.20","721.50","23.12K","-0.28%"
"Jul 13, 2020","720.50","720.00","729.90","719.90","52.09K","-0.37%"
"Jul 14, 2020","724.60","721.40","728.10","721.40","40.43K","0.57%"
"Jul 15, 2020","724.90","729.00","729.00","721.50","28.90K","0.04%"
"Jul 16, 2020","727.80","725.00","728.90","725.00","16.55K","0.40%"
"Jul 17, 2020","733.50","728.20","734.90","727.50","38.59K","0.78%"
"Jul 20, 2020","729.30","733.50","739.50","728.20","64.71K","-0.57%"
"Jul 21, 2020","721.00","728.00","729.90","720.80","74.65K","-1.14%"
"Jul 22, 2020","726.60","725.80","727.00","720.50","29.37K","0.78%"
"Jul 23, 2020","727.50","728.10","731.00","720.90","65.99K","0.12%"
"Jul 24, 2020","732.70","731.80","734.80","728.00","47.41K","0.71%"
"Jul 27, 2020","732.60","732.00","734.50","729.20","33.19K","-0.01%"
"Jul 28, 2020","740.40","732.20","742.00","728.30","96.05K","1.06%"
"Jul 29, 2020","740.20","740.00","743.90","736.00","55.55K","-0.03%"
"Jul 30, 2020","752.10","745.00","753.00","740.50","91.14K","1.61%"
"Jul 31, 2020","758.60","751.00","758.80","733.00","89.50K","0.86%"
"Aug 03, 2020","748.00","759.80","762.00","747.50","125.95K","-1.40%"
"Aug 04, 2020","749.60","750.00","754.70","745.10","72.40K","0.21%"
"Aug 05, 2020","741.30","751.00","751.00","740.00","78.37K","-1.11%"
"Aug 06, 2020","748.10","744.00","749.90","740.60","60.21K","0.92%"
"Aug 07, 2020","750.50","750.00","753.20","745.30","51.80K","0.32%"
"Aug 10, 2020","749.70","757.00","757.00","747.30","65.27K","-0.11%"
"Aug 11, 2020","743.50","750.00","751.90","740.50","84.71K","-0.83%"
"Aug 12, 2020","751.50","740.20","753.40","740.20","141.41K","1.08%"
"Aug 13, 2020","746.90","748.10","755.00","745.60","18.45K","-0.61%"
"Aug 14, 2020","743.70","752.00","752.00","743.60","50.08K","-0.43%"
"Aug 17, 2020","750.70","743.80","753.20","742.70","57.11K","0.94%"
"Aug 18, 2020","747.50","753.10","753.30","744.60","45.40K","-0.43%"
"Aug 19, 2020","746.10","748.90","751.00","745.10","44.38K","-0.19%"
"Aug 20, 2020","756.00","746.10","757.40","746.10","76.82K","1.33%"
"Aug 21, 2020","763.30","757.80","765.60","752.60","100.70K","0.97%"
"Aug 24, 2020","760.00","760.00","761.90","755.10","50.58K","-0.43%"
"Aug 25, 2020","767.30","764.50","768.90","757.10","98.76K","0.96%"
"Aug 26, 2020","769.00","769.00","774.30","767.50","77.80K","0.22%"
"Aug 27, 2020","764.60","769.40","774.30","761.60","44.09K","-0.57%"
"Aug 28, 2020","757.80","758.30","775.40","757.70","56.69K","-0.89%"
"Aug 31, 2020","758.10","762.00","762.00","751.60","31.57K","0.04%"
"Sep 01, 2020","750.40","757.40","757.50","744.10","45.80K","-1.02%"
"Sep 02, 2020","769.70","753.90","771.90","750.10","88.52K","2.57%"
"Sep 03, 2020","763.10","770.00","772.80","761.40","81.04K","-0.86%"
"Sep 04, 2020","768.50","768.80","770.90","763.50","59.15K","0.71%"
"Sep 07, 2020","771.70","770.60","777.00","765.70","48.21K","0.42%"
"Sep 08, 2020","780.10","773.80","780.10","771.20","94.77K","1.09%"
"Sep 09, 2020","768.90","784.80","784.80","768.00","51.01K","-1.44%"
"Sep 10, 2020","766.00","768.10","771.50","761.80","60.63K","-0.38%"
"Sep 11, 2020","765.50","768.80","768.80","763.10","16.78K","-0.07%"
"Sep 14, 2020","767.00","762.20","770.80","761.30","50.13K","0.20%"
"Sep 15, 2020","764.80","766.70","771.00","763.00","35.89K","-0.29%"
"Sep 16, 2020","764.40","767.00","767.00","762.30","20.51K","-0.05%"
"Sep 17, 2020","768.40","769.90","775.00","764.70","32.70K","0.52%"
"Sep 18, 2020","772.40","765.20","772.40","765.10","33.62K","0.52%"
"Sep 21, 2020","780.00","772.00","781.40","769.30","70.28K","0.98%"
"Sep 22, 2020","777.70","780.20","782.00","773.00","58.04K","-0.29%"
"Sep 23, 2020","783.50","778.90","786.60","777.10","68.71K","0.75%"
"Sep 24, 2020","786.20","785.10","790.50","784.40","111.16K","0.34%"
"Sep 25, 2020","797.50","785.90","799.50","781.00","156.77K","1.44%"
"Sep 28, 2020","805.00","793.20","806.50","792.60","59.76K","0.94%"
"Sep 29, 2020","807.60","805.00","815.00","799.10","101.49K","0.32%"
"Sep 30, 2020","790.50","806.80","808.10","790.10","55.58K","-2.12%"
"Oct 01, 2020","793.80","790.00","799.00","782.00","55.05K","0.42%"
"Oct 02, 2020","800.90","796.00","802.80","793.60","55.03K","0.89%"
"Oct 05, 2020","798.70","800.70","803.70","793.00","53.69K","-0.27%"
"Oct 06, 2020","795.00","801.20","801.50","790.10","29.54K","-0.46%"
"Oct 07, 2020","797.20","797.00","800.00","794.50","33.23K","0.28%"
"Oct 08, 2020","790.00","793.00","799.80","788.00","26.84K","-0.90%"
"Oct 09, 2020","787.80","790.10","792.90","781.30","39.49K","-0.28%"
"Oct 12, 2020","785.80","789.00","790.00","783.20","29.41K","-0.25%"
"Oct 13, 2020","785.10","785.80","790.00","783.50","43.13K","-0.09%"
"Oct 14, 2020","789.50","787.10","794.30","783.20","26.03K","0.56%"
"Oct 15, 2020","798.40","793.60","798.50","791.00","37.52K","1.13%"
"Oct 16, 2020","793.80","798.90","799.00","792.20","25.23K","-0.58%"
"Oct 19, 2020","790.00","797.00","797.00","788.90","26.77K","-0.48%"
"Oct 20, 2020","788.40","791.60","795.00","788.00","33.35K","-0.20%"
"Oct 21, 2020","782.20","794.50","794.50","780.00","57.80K","-0.79%"
"Oct 22, 2020","778.80","785.90","788.00","778.40","32.99K","-0.43%"
"Oct 23, 2020","776.00","778.80","783.20","771.00","83.11K","-0.36%"
"Oct 26, 2020","775.80","779.10","782.20","774.50","42.03K","-0.03%"
"Oct 27, 2020","783.90","777.80","786.80","777.00","27.12K","1.04%"
"Oct 28, 2020","800.70","787.30","803.50","784.00","79.14K","2.14%"
"Oct 29, 2020","806.20","798.10","810.50","795.10","92.23K","0.69%"
"Oct 30, 2020","809.10","800.00","809.90","783.60","57.87K","0.36%"
"Nov 02, 2020","822.10","810.00","823.50","809.10","153.16K","1.61%"
"Nov 03, 2020","806.40","818.80","822.00","806.20","53.24K","-1.91%"
"Nov 05, 2020","784.40","804.80","804.90","784.40","80.26K","-2.73%"
"Nov 06, 2020","789.10","786.90","796.00","783.70","50.71K","0.60%"
"Nov 09, 2020","777.00","787.10","789.00","771.50","109.15K","-1.53%"
"Nov 10, 2020","779.90","780.00","783.90","775.00","57.96K","0.37%"
"Nov 11, 2020","785.20","780.50","785.90","774.10","47.44K","0.68%"
"Nov 12, 2020","787.70","787.40","789.60","780.30","42.10K","0.32%"
"Nov 13, 2020","790.00","787.30","791.50","782.00","122.24K","0.29%"
"Nov 16, 2020","775.80","785.60","787.00","770.00","133.38K","-1.80%"
"Nov 17, 2020","776.00","777.40","780.60","774.30","46.90K","0.03%"
"Nov 18, 2020","774.40","777.30","784.90","769.10","73.37K","-0.21%"
"Nov 19, 2020","774.50","775.20","780.00","770.20","29.90K","0.01%"
"Nov 20, 2020","775.50","775.50","776.90","772.20","43.73K","0.13%"