﻿"Date","Price","Open","High","Low","Vol.","Change %"
"Sep 02, 2019","641.00","634.00","643.00","634.00","0.93K","0.31%"
"Sep 03, 2019","640.00","634.00","640.00","634.00","0.49K","-0.16%"
"Sep 04, 2019","644.00","640.00","647.00","640.00","0.79K","0.63%"
"Sep 05, 2019","649.00","648.00","650.00","643.00","0.77K","0.78%"
"Sep 06, 2019","650.00","646.00","653.00","646.00","0.65K","0.15%"
"Sep 09, 2019","647.00","651.00","651.00","645.00","0.22K","-0.46%"
"Sep 10, 2019","646.00","646.00","648.00","642.00","1.31K","-0.15%"
"Sep 11, 2019","652.00","646.00","653.00","646.00","0.41K","0.93%"
"Sep 12, 2019","652.00","655.00","655.00","648.00","1.04K","0.00%"
"Sep 13, 2019","651.00","648.00","653.00","648.00","0.85K","-0.15%"
"Sep 16, 2019","644.00","641.00","645.00","639.00","1.39K","-1.08%"
"Sep 17, 2019","640.00","641.00","643.00","636.00","0.58K","-0.62%"
"Sep 18, 2019","642.00","646.00","646.00","641.00","1.59K","0.31%"
"Sep 19, 2019","639.00","640.00","640.00","636.00","0.12K","-0.47%"
"Sep 20, 2019","641.00","641.00","641.00","639.00","0.40K","0.31%"
"Sep 23, 2019","636.00","640.00","640.00","634.00","0.78K","-0.78%"
"Sep 24, 2019","633.00","638.00","638.00","632.00","0.10K","-0.47%"
"Sep 25, 2019","633.00","633.00","633.00","629.00","0.25K","0.00%"
"Sep 26, 2019","634.00","634.00","637.00","633.00","0.19K","0.16%"
"Sep 27, 2019","635.00","636.00","636.00","630.00","0.40K","0.16%"
"Sep 30, 2019","639.00","630.00","640.00","630.00","0.24K","0.63%"
"Oct 01, 2019","636.00","639.00","639.00","635.00","0.58K","-0.47%"
"Oct 02, 2019","630.00","636.00","636.00","629.00","0.53K","-0.94%"
"Oct 03, 2019","626.00","629.00","630.00","622.00","0.45K","-0.63%"
"Oct 04, 2019","630.00","630.00","634.00","625.00","1.33K","0.64%"
"Oct 07, 2019","633.00","627.00","636.00","627.00","0.20K","0.48%"
"Oct 08, 2019","633.00","634.00","637.00","630.00","0.48K","0.00%"
"Oct 09, 2019","632.00","634.00","635.00","630.00","0.04K","-0.16%"
"Oct 10, 2019","634.00","629.00","636.00","629.00","0.27K","0.32%"
"Oct 11, 2019","641.00","634.00","642.00","634.00","0.86K","1.10%"
"Oct 14, 2019","641.00","616.00","643.00","616.00","1.87K","0.00%"
"Oct 15, 2019","641.00","642.00","643.00","641.00","0.23K","0.00%"
"Oct 16, 2019","643.00","642.00","644.00","640.00","0.70K","0.31%"
"Oct 17, 2019","646.00","645.00","648.00","643.00","0.67K","0.47%"
"Oct 18, 2019","644.00","639.00","646.00","639.00","0.50K","-0.31%"
"Oct 21, 2019","643.00","644.00","645.00","640.00","0.15K","-0.16%"
"Oct 22, 2019","646.00","640.00","646.00","640.00","0.21K","0.47%"
"Oct 23, 2019","646.00","647.00","647.00","644.00","0.35K","0.00%"
"Oct 24, 2019","650.00","652.00","652.00","646.00","1.28K","0.62%"
"Oct 25, 2019","647.00","647.00","650.00","646.00","0.08K","-0.46%"
"Oct 28, 2019","656.00","656.00","656.00","650.00","1.25K","1.39%"
"Oct 29, 2019","656.00","657.00","657.00","654.00","0.08K","0.00%"
"Oct 30, 2019","650.00","655.00","655.00","650.00","2.69K","-0.91%"
"Oct 31, 2019","653.00","700.00","700.00","650.00","0.51K","0.46%"
"Nov 01, 2019","657.00","656.00","660.00","653.00","1.27K","0.61%"
"Nov 05, 2019","668.00","656.00","669.00","656.00","2.08K","1.67%"
"Nov 06, 2019","671.00","673.00","673.00","665.00","0.77K","0.45%"
"Nov 07, 2019","674.00","671.00","675.00","667.00","0.91K","0.45%"
"Nov 08, 2019","664.00","677.00","677.00","664.00","0.29K","-1.48%"
"Nov 11, 2019","661.00","665.00","671.00","620.00","0.71K","-0.45%"
"Nov 12, 2019","661.00","666.00","666.00","656.00","0.72K","0.00%"
"Nov 13, 2019","656.00","665.00","665.00","654.00","1.27K","-0.76%"
"Nov 14, 2019","658.00","659.00","660.00","654.00","0.39K","0.30%"
"Nov 15, 2019","661.00","658.00","661.00","655.00","0.51K","0.46%"
"Nov 18, 2019","659.00","660.00","670.00","658.00","1.34K","-0.30%"
"Nov 19, 2019","661.00","665.00","665.00","660.00","0.66K","0.30%"
"Nov 20, 2019","661.00","664.00","666.00","656.00","0.29K","0.00%"
"Nov 21, 2019","653.00","662.00","662.00","652.00","0.86K","-1.21%"
"Nov 22, 2019","654.00","655.00","657.00","653.00","0.85K","0.15%"
"Nov 25, 2019","664.00","656.00","664.00","649.00","0.74K","1.53%"
"Nov 26, 2019","658.00","667.00","668.00","658.00","0.99K","-0.90%"
"Nov 27, 2019","661.00","662.00","663.00","654.00","0.43K","0.46%"
"Nov 28, 2019","663.00","665.00","666.00","657.00","0.84K","0.30%"
"Nov 29, 2019","655.00","720.00","720.00","651.00","2.85K","-1.21%"
"Dec 02, 2019","657.00","662.00","663.00","653.00","0.61K","0.31%"
"Dec 03, 2019","649.00","657.00","657.00","647.00","1.04K","-1.22%"
"Dec 04, 2019","652.00","643.00","655.00","643.00","0.78K","0.46%"
"Dec 05, 2019","653.00","650.00","656.00","650.00","0.77K","0.15%"
"Dec 06, 2019","658.00","657.00","661.00","653.00","0.94K","0.77%"
"Dec 09, 2019","659.00","660.00","662.00","655.00","1.77K","0.15%"
"Dec 10, 2019","654.00","659.00","660.00","650.00","0.85K","-0.76%"
"Dec 11, 2019","660.00","659.00","661.00","652.00","0.48K","0.92%"
"Dec 12, 2019","663.00","655.00","667.00","655.00","0.73K","0.45%"
"Dec 13, 2019","670.00","667.00","672.00","661.00","1.22K","1.06%"
"Dec 16, 2019","672.00","676.00","676.00","667.00","0.79K","0.30%"
"Dec 17, 2019","675.00","675.00","678.00","671.00","1.20K","0.45%"
"Dec 18, 2019","676.00","670.00","684.00","670.00","0.44K","0.15%"
"Dec 19, 2019","677.00","675.00","682.00","675.00","1.20K","0.15%"
"Dec 20, 2019","679.00","676.00","681.00","675.00","0.83K","0.30%"
"Dec 23, 2019","676.00","679.00","681.00","675.00","0.89K","-0.44%"
"Dec 24, 2019","677.00","680.00","680.00","675.00","1.47K","0.15%"
"Dec 25, 2019","676.00","675.00","676.00","670.00","0.51K","-0.15%"
"Dec 26, 2019","681.00","675.00","681.00","669.00","1.24K","0.74%"
"Dec 27, 2019","682.00","678.00","686.00","678.00","1.26K","0.15%"
"Dec 30, 2019","687.00","683.00","689.00","679.00","2.22K","0.73%"
"Jan 03, 2020","686.00","690.00","695.00","680.00","3.08K","-0.15%"
"Jan 06, 2020","677.00","683.00","688.00","675.00","0.48K","-1.31%"
"Jan 08, 2020","677.00","675.00","678.00","670.00","0.77K","0.00%"
"Jan 09, 2020","679.00","672.00","682.00","672.00","1.30K","0.30%"
"Jan 10, 2020","681.00","675.00","684.00","675.00","1.20K","0.29%"
"Jan 13, 2020","687.20","681.40","687.60","679.10","1.13K","0.91%"
"Jan 14, 2020","687.00","688.30","689.80","685.00","1.10K","-0.03%"
"Jan 15, 2020","687.40","687.10","688.20","681.60","1.17K","0.06%"
"Jan 16, 2020","691.00","685.10","692.30","684.80","4.37K","0.52%"
"Jan 17, 2020","690.00","690.80","692.00","686.90","3.93K","-0.14%"
"Jan 20, 2020","689.80","688.00","690.70","684.10","2.16K","-0.03%"
"Jan 21, 2020","683.10","690.00","691.90","678.40","4.96K","-0.97%"
"Jan 22, 2020","686.10","682.00","689.40","682.00","1.67K","0.44%"
"Jan 23, 2020","676.30","668.10","680.90","668.10","4.78K","-1.43%"
"Jan 24, 2020","678.90","671.10","684.60","671.10","2.19K","0.38%"
"Jan 27, 2020","664.90","675.20","677.90","650.00","6.71K","-2.06%"
"Jan 28, 2020","666.20","660.20","676.90","660.20","1.05K","0.20%"
"Jan 29, 2020","671.10","661.30","674.00","661.30","3.31K","0.74%"
"Jan 30, 2020","664.60","665.10","669.30","655.00","4.71K","-0.97%"
"Jan 31, 2020","659.10","660.50","662.50","656.10","6.63K","-0.83%"
"Feb 03, 2020","664.20","652.50","664.20","648.10","3.61K","0.77%"
"Feb 04, 2020","675.10","662.90","676.80","662.90","7.21K","1.64%"
"Feb 05, 2020","670.50","680.70","680.70","670.20","2.68K","-0.68%"
"Feb 06, 2020","679.50","670.10","682.60","664.00","1.12K","1.34%"
"Feb 07, 2020","676.60","684.90","684.90","672.90","1.27K","-0.43%"
"Feb 10, 2020","678.00","684.90","684.90","670.00","2.16K","0.21%"
"Feb 11, 2020","681.00","671.10","685.50","671.00","4.43K","0.44%"
"Feb 12, 2020","679.90","681.90","683.70","676.00","2.08K","-0.16%"
"Feb 13, 2020","682.20","684.90","691.90","680.20","2.22K","0.34%"
"Feb 14, 2020","686.70","680.10","687.90","677.60","1.62K","0.66%"
"Feb 17, 2020","688.40","689.90","693.40","685.00","0.87K","0.25%"
"Feb 18, 2020","683.30","681.60","692.00","680.00","1.06K","-0.74%"
"Feb 19, 2020","684.10","680.10","689.40","679.20","0.70K","0.12%"
"Feb 20, 2020","681.30","680.20","689.80","680.20","1.12K","-0.41%"
"Feb 21, 2020","678.10","681.40","688.10","675.10","1.38K","-0.47%"
"Feb 25, 2020","667.80","675.10","678.10","657.50","1.99K","-1.52%"
"Feb 26, 2020","668.00","667.10","671.70","653.60","1.18K","0.03%"
"Feb 27, 2020","654.00","669.90","681.30","654.00","1.52K","-2.10%"
"Feb 28, 2020","647.50","653.40","673.90","641.90","2.99K","-0.99%"
"Mar 02, 2020","659.90","649.90","667.70","640.20","2.89K","1.92%"
"Mar 03, 2020","668.20","655.00","674.60","655.00","1.26K","1.26%"
"Mar 04, 2020","668.30","665.10","668.80","655.80","0.84K","0.01%"
"Mar 05, 2020","671.70","669.90","675.20","668.00","2.11K","0.51%"
"Mar 06, 2020","662.00","668.50","668.90","659.30","0.68K","-1.44%"
"Mar 10, 2020","666.70","715.00","715.10","617.00","7.67K","0.71%"
"Mar 11, 2020","661.20","662.90","664.90","655.40","2.15K","-0.82%"
"Mar 12, 2020","602.00","660.20","664.70","602.00","4.88K","-8.95%"
"Mar 13, 2020","615.40","606.30","645.00","580.00","6.34K","2.23%"
"Mar 16, 2020","591.50","615.00","635.00","575.50","6.14K","-3.88%"
"Mar 17, 2020","598.00","588.90","599.50","577.80","4.91K","1.10%"
"Mar 18, 2020","600.80","592.90","618.40","582.90","4.58K","0.47%"
"Mar 19, 2020","592.10","590.00","601.80","577.80","1.41K","-1.45%"
"Mar 20, 2020","612.90","615.00","627.00","594.80","3.27K","3.51%"
"Mar 23, 2020","581.50","607.00","615.10","579.90","1.92K","-5.12%"
"Mar 24, 2020","612.00","610.90","615.30","596.20","5.31K","5.25%"
"Mar 25, 2020","629.50","629.00","633.60","611.50","3.82K","2.86%"
"Mar 26, 2020","639.80","623.20","639.90","623.20","0.79K","1.64%"
"Mar 27, 2020","627.90","643.00","646.80","624.00","4.42K","-1.86%"
"Mar 30, 2020","642.80","636.70","648.90","627.00","0.91K","2.37%"
"Mar 31, 2020","640.00","641.70","641.70","629.30","1.02K","-0.44%"
"Apr 01, 2020","620.10","635.30","635.30","620.10","1.27K","-3.11%"
"Apr 02, 2020","622.00","622.00","634.00","619.90","1.07K","0.31%"
"Apr 03, 2020","610.20","621.60","621.60","610.00","2.05K","-1.90%"
"Apr 06, 2020","632.60","614.90","632.60","614.90","1.83K","3.67%"
"Apr 07, 2020","641.20","632.30","649.90","629.10","5.99K","1.36%"
"Apr 08, 2020","633.30","634.80","637.70","629.00","2.23K","-1.23%"
"Apr 09, 2020","630.00","635.20","641.40","623.00","4.77K","-0.52%"
"Apr 10, 2020","634.90","634.90","638.00","627.30","1.93K","0.78%"
"Apr 13, 2020","625.10","625.20","632.90","624.60","1.62K","-1.54%"
"Apr 14, 2020","631.60","629.90","634.00","628.10","2.22K","1.04%"
"Apr 15, 2020","629.40","630.80","632.30","626.90","2.14K","-0.35%"
"Apr 16, 2020","633.10","625.90","638.00","625.90","1.27K","0.59%"
"Apr 17, 2020","639.40","629.20","648.00","629.20","1.92K","1.00%"
"Apr 20, 2020","645.20","640.00","646.70","636.00","2.12K","0.91%"
"Apr 21, 2020","643.90","640.20","649.00","638.20","2.47K","-0.20%"
"Apr 22, 2020","651.00","644.90","657.60","644.90","2.30K","1.10%"
"Apr 23, 2020","643.00","638.80","650.00","638.80","1.18K","-1.23%"
"Apr 24, 2020","631.00","641.10","641.10","630.90","7.42K","-1.87%"
"Apr 27, 2020","645.00","639.90","645.60","639.90","2.26K","2.22%"
"Apr 28, 2020","647.50","646.50","652.00","643.40","3.79K","0.39%"
"Apr 29, 2020","650.00","647.00","651.20","643.70","2.26K","0.39%"
"Apr 30, 2020","655.10","645.10","660.00","645.10","1.71K","0.78%"
"May 04, 2020","640.00","659.80","659.80","635.40","6.76K","-2.30%"
"May 05, 2020","639.30","640.70","644.30","635.20","1.58K","-0.11%"
"May 06, 2020","639.70","643.80","648.40","636.50","3.26K","0.06%"
"May 07, 2020","636.90","641.10","641.70","636.30","0.95K","-0.44%"
"May 08, 2020","647.30","644.90","647.30","641.10","7.39K","1.63%"
"May 12, 2020","646.00","643.30","649.00","631.50","2.73K","-0.20%"
"May 13, 2020","644.90","649.50","649.50","642.00","1.56K","-0.17%"
"May 14, 2020","638.50","640.10","641.80","628.30","2.70K","-0.99%"
"May 15, 2020","630.80","635.60","640.40","630.80","1.12K","-1.21%"
"May 18, 2020","644.80","630.10","645.40","628.40","1.74K","2.22%"
"May 19, 2020","648.00","648.50","648.50","642.10","1.85K","0.50%"
"May 20, 2020","645.10","648.30","648.30","642.80","1.06K","-0.45%"
"May 21, 2020","631.40","637.40","637.40","627.50","2.88K","-2.12%"
"May 22, 2020","628.60","613.10","630.60","612.50","1.67K","-0.44%"
"May 25, 2020","633.50","627.20","635.60","624.60","1.06K","0.78%"
"May 26, 2020","636.80","638.50","639.20","635.00","3.88K","0.52%"
"May 27, 2020","634.70","628.50","646.00","626.00","2.43K","-0.33%"
"May 28, 2020","633.00","639.90","639.90","631.80","1.53K","-0.27%"
"May 29, 2020","630.70","636.50","636.60","629.50","2.04K","-0.36%"
"Jun 01, 2020","635.10","634.90","640.00","630.10","1.60K","0.70%"
"Jun 02, 2020","647.00","639.20","647.00","636.00","2.05K","1.87%"
"Jun 03, 2020","662.30","646.10","664.10","645.80","2.31K","2.36%"
"Jun 04, 2020","659.10","657.00","664.20","655.10","1.54K","-0.48%"
"Jun 05, 2020","670.00","660.10","671.20","660.10","2.22K","1.65%"
"Jun 08, 2020","663.00","673.00","673.00","660.30","1.28K","-1.04%"
"Jun 09, 2020","663.90","674.10","679.90","663.70","3.47K","0.14%"
"Jun 10, 2020","671.00","669.80","675.30","669.80","2.73K","1.07%"
"Jun 11, 2020","662.00","663.20","665.80","658.60","1.12K","-1.34%"
"Jun 15, 2020","654.50","657.50","658.50","647.30","1.89K","-1.13%"
"Jun 16, 2020","662.00","659.90","675.00","659.90","1.28K","1.15%"
"Jun 17, 2020","668.00","664.90","672.80","664.90","1.31K","0.91%"
"Jun 18, 2020","668.00","672.00","672.00","665.50","0.55K","0.00%"
"Jun 19, 2020","673.00","673.00","675.00","670.50","1.77K","0.75%"
"Jun 22, 2020","673.30","670.10","673.30","668.00","2.21K","0.04%"
"Jun 23, 2020","674.50","666.80","676.80","666.80","1.65K","0.18%"
"Jun 25, 2020","669.00","666.10","670.20","664.30","2.20K","-0.82%"
"Jun 26, 2020","669.40","669.00","675.70","666.80","2.27K","0.06%"
"Jun 29, 2020","671.40","665.10","675.00","661.30","1.10K","0.30%"
"Jun 30, 2020","685.60","671.40","685.80","671.10","1.10K","2.11%"
"Jul 02, 2020","696.70","694.50","700.00","687.20","2.80K","1.62%"
"Jul 03, 2020","715.00","715.00","716.60","704.00","2.51K","2.63%"
"Jul 06, 2020","739.90","730.10","745.80","724.50","2.54K","3.48%"
"Jul 07, 2020","732.80","735.20","738.90","728.00","2.14K","-0.96%"
"Jul 08, 2020","736.00","731.30","739.90","730.00","1.00K","0.44%"
"Jul 09, 2020","736.90","739.90","744.20","731.50","0.78K","0.12%"
"Jul 10, 2020","732.00","728.10","736.40","725.20","0.93K","-0.66%"
"Jul 13, 2020","736.70","732.80","740.00","725.50","1.00K","0.64%"
"Jul 14, 2020","729.80","727.00","730.90","723.00","1.03K","-0.94%"
"Jul 15, 2020","734.10","729.90","736.80","729.90","0.78K","0.59%"
"Jul 16, 2020","724.00","724.60","726.10","717.00","1.77K","-1.38%"
"Jul 17, 2020","734.10","720.20","736.00","720.20","1.16K","1.40%"
"Jul 20, 2020","740.00","735.70","741.20","734.30","1.81K","0.80%"
"Jul 21, 2020","746.10","735.10","752.00","735.10","1.62K","0.82%"
"Jul 22, 2020","744.50","747.00","749.90","738.60","2.20K","-0.21%"
"Jul 23, 2020","747.80","743.40","749.80","741.60","1.71K","0.44%"
"Jul 24, 2020","742.30","741.60","744.00","732.10","2.25K","-0.74%"
"Jul 27, 2020","750.20","741.80","751.80","740.10","1.46K","1.06%"
"Jul 28, 2020","758.70","749.50","760.00","749.50","2.33K","1.13%"
"Jul 29, 2020","763.20","765.40","766.60","760.10","2.09K","0.59%"
"Jul 30, 2020","766.00","763.40","772.00","763.40","4.02K","0.37%"
"Jul 31, 2020","773.90","767.50","777.90","767.50","3.67K","1.03%"
"Aug 03, 2020","769.30","773.90","777.10","767.00","3.67K","-0.59%"
"Aug 04, 2020","777.20","780.80","781.10","773.20","4.60K","1.03%"
"Aug 05, 2020","783.90","777.10","788.50","777.10","5.58K","0.86%"
"Aug 06, 2020","784.50","778.90","787.80","775.40","2.46K","0.08%"
"Aug 07, 2020","780.30","777.30","783.20","770.00","5.51K","-0.54%"
"Aug 10, 2020","773.80","780.30","782.70","773.80","5.23K","-0.83%"
"Aug 11, 2020","778.00","778.40","779.90","774.00","3.18K","0.54%"
"Aug 12, 2020","788.50","781.50","788.50","775.00","2.31K","1.35%"
"Aug 13, 2020","780.40","786.50","786.80","780.00","3.53K","-1.03%"
"Aug 14, 2020","777.00","784.20","784.90","771.80","2.87K","-0.44%"
"Aug 17, 2020","786.80","778.20","790.80","777.80","2.45K","1.26%"
"Aug 18, 2020","785.30","791.00","791.00","782.20","2.47K","-0.19%"
"Aug 19, 2020","785.00","777.40","790.30","775.40","2.28K","-0.04%"
"Aug 20, 2020","778.80","776.60","778.80","770.00","2.10K","-0.79%"
"Aug 21, 2020","792.80","778.60","795.70","778.60","1.77K","1.80%"
"Aug 24, 2020","800.00","799.30","805.30","792.80","3.48K","0.91%"
"Aug 25, 2020","813.40","799.90","813.40","799.90","2.87K","1.68%"
"Aug 26, 2020","819.10","818.90","826.50","814.70","4.72K","0.70%"
"Aug 27, 2020","812.00","821.20","821.20","810.40","3.39K","-0.87%"
"Aug 28, 2020","810.80","814.40","814.80","804.30","2.20K","-0.15%"
"Aug 31, 2020","796.10","805.30","806.30","792.40","4.99K","-1.81%"
"Sep 01, 2020","799.10","796.10","803.00","792.80","3.08K","0.38%"
"Sep 02, 2020","814.80","799.90","819.30","799.90","3.13K","1.96%"
"Sep 03, 2020","801.00","819.40","823.00","800.00","4.16K","-1.69%"
"Sep 04, 2020","798.20","802.70","808.30","793.70","4.25K","-0.35%"
"Sep 07, 2020","806.60","796.60","810.50","790.10","4.05K","1.05%"
"Sep 08, 2020","805.30","811.40","812.80","798.50","3.32K","-0.16%"
"Sep 09, 2020","799.60","802.50","802.50","797.40","3.04K","-0.71%"
"Sep 10, 2020","795.70","798.50","801.60","791.70","2.67K","-0.49%"
"Sep 11, 2020","794.90","795.70","798.00","793.00","4.30K","-0.10%"
"Sep 14, 2020","807.00","799.50","809.20","795.00","2.08K","1.52%"
"Sep 15, 2020","812.00","809.90","817.90","808.90","3.93K","0.62%"
"Sep 16, 2020","815.00","815.70","818.00","812.00","2.12K","0.37%"
"Sep 17, 2020","812.20","810.80","812.20","803.80","2.67K","-0.34%"
"Sep 18, 2020","813.90","814.90","818.10","811.20","2.24K","0.21%"
"Sep 21, 2020","797.80","813.50","813.50","797.60","4.07K","-1.98%"
"Sep 22, 2020","796.70","797.60","801.80","795.40","3.82K","-0.14%"
"Sep 23, 2020","800.50","798.10","808.00","794.00","2.32K","0.48%"
"Sep 24, 2020","793.50","801.70","801.70","782.50","2.73K","-0.87%"
"Sep 25, 2020","796.00","792.30","801.60","785.20","2.98K","0.32%"
"Sep 28, 2020","819.60","801.00","823.10","800.10","4.18K","2.96%"
"Sep 29, 2020","821.90","820.10","825.70","813.70","6.09K","0.28%"
"Sep 30, 2020","821.10","824.90","829.00","810.50","9.44K","-0.10%"
"Oct 01, 2020","824.00","824.90","826.60","819.00","2.26K","0.35%"
"Oct 02, 2020","828.40","824.00","832.80","815.90","5.13K","0.53%"
"Oct 05, 2020","831.10","829.90","835.90","818.80","2.32K","0.33%"
"Oct 06, 2020","840.60","835.30","841.10","832.80","4.27K","1.14%"
"Oct 07, 2020","847.20","847.80","847.80","838.00","4.21K","0.79%"
"Oct 08, 2020","840.00","842.60","849.80","839.40","6.81K","-0.85%"
"Oct 09, 2020","844.30","837.90","844.90","835.60","3.29K","0.51%"
"Oct 12, 2020","853.30","845.60","853.90","845.50","5.43K","1.07%"
"Oct 13, 2020","848.40","854.30","854.80","847.30","3.04K","-0.57%"
"Oct 14, 2020","855.00","849.00","855.60","845.50","2.92K","0.78%"
"Oct 15, 2020","848.40","855.70","856.00","838.60","5.46K","-0.77%"
"Oct 16, 2020","849.00","848.40","854.90","845.70","2.86K","0.07%"
"Oct 19, 2020","846.20","849.00","857.00","846.20","3.34K","-0.33%"
"Oct 20, 2020","849.00","846.20","854.20","846.20","2.67K","0.33%"
"Oct 21, 2020","845.00","853.00","854.70","844.00","3.11K","-0.47%"
"Oct 22, 2020","841.80","849.30","850.50","840.00","3.92K","-0.38%"
"Oct 23, 2020","840.60","842.00","845.80","838.80","7.34K","-0.14%"
"Oct 26, 2020","831.00","835.20","844.70","826.70","7.04K","-1.14%"
"Oct 27, 2020","845.50","833.50","846.80","828.60","3.01K","1.74%"
"Oct 28, 2020","843.30","847.10","850.30","838.50","4.30K","-0.26%"
"Oct 29, 2020","851.90","846.20","859.30","844.90","4.31K","1.02%"
"Oct 30, 2020","843.30","842.90","849.50","840.00","4.91K","-1.01%"
"Nov 02, 2020","866.70","844.00","876.90","843.30","4.40K","2.77%"
"Nov 03, 2020","860.50","867.00","876.20","856.00","6.72K","-0.72%"
"Nov 05, 2020","871.10","867.20","892.00","860.50","10.39K","1.23%"
"Nov 06, 2020","883.80","867.00","886.00","865.50","10.00K","1.46%"
"Nov 09, 2020","893.20","890.80","900.00","884.40","10.19K","1.06%"
"Nov 10, 2020","871.30","879.80","882.50","865.40","14.26K","-2.45%"
"Nov 11, 2020","878.70","876.00","880.50","866.00","9.27K","0.85%"
"Nov 12, 2020","888.50","877.60","891.00","874.60","4.98K","1.12%"
"Nov 13, 2020","893.60","888.90","896.30","882.00","5.18K","0.57%"
"Nov 16, 2020","895.20","893.00","899.90","885.00","9.92K","0.18%"
"Nov 17, 2020","890.60","888.00","892.00","879.10","7.51K","-0.51%"
"Nov 18, 2020","888.00","891.90","894.70","886.50","6.68K","-0.29%"
"Nov 19, 2020","890.80","889.20","892.00","880.60","5.51K","0.32%"
"Nov 20, 2020","892.40","886.70","893.60","884.00","5.94K","0.18%"